\relax 
\providecommand\hyper@newdestlabel[2]{}
\providecommand\HyperFirstAtBeginDocument{\AtBeginDocument}
\HyperFirstAtBeginDocument{\ifx\hyper@anchor\@undefined
\global\let\oldcontentsline\contentsline
\gdef\contentsline#1#2#3#4{\oldcontentsline{#1}{#2}{#3}}
\global\let\oldnewlabel\newlabel
\gdef\newlabel#1#2{\newlabelxx{#1}#2}
\gdef\newlabelxx#1#2#3#4#5#6{\oldnewlabel{#1}{{#2}{#3}}}
\AtEndDocument{\ifx\hyper@anchor\@undefined
\let\contentsline\oldcontentsline
\let\newlabel\oldnewlabel
\fi}
\fi}
\global\let\hyper@last\relax 
\gdef\HyperFirstAtBeginDocument#1{#1}
\providecommand\HyField@AuxAddToFields[1]{}
\providecommand\HyField@AuxAddToCoFields[2]{}
\providecommand \oddpage@label [2]{}
\@writefile{toc}{\@ifundefined {etoctocstyle}{\let \etoc@startlocaltoc \@gobble \let \etoc@settocdepth \@gobble \let \etoc@depthtag \@gobble \let \etoc@setlocaltop \@gobble }{}}
\@writefile{lot}{\contentsline {table}{\numberline {1}{\ignorespaces Table of Revisions\relax }}{i}{table.caption.2}\protected@file@percent }
\@writefile{toc}{\contentsline {chapter}{\numberline {1}Namespace Index}{1}{chapter.1}\protected@file@percent }
\@writefile{lof}{\addvspace {10\p@ }}
\@writefile{lot}{\addvspace {10\p@ }}
\@writefile{toc}{\contentsline {section}{\numberline {1.1}Packages}{1}{section.1.1}\protected@file@percent }
\@writefile{toc}{\contentsline {chapter}{\numberline {2}Hierarchical Index}{3}{chapter.2}\protected@file@percent }
\@writefile{lof}{\addvspace {10\p@ }}
\@writefile{lot}{\addvspace {10\p@ }}
\@writefile{toc}{\contentsline {section}{\numberline {2.1}Class Hierarchy}{3}{section.2.1}\protected@file@percent }
\@writefile{toc}{\contentsline {chapter}{\numberline {3}Class Index}{5}{chapter.3}\protected@file@percent }
\@writefile{lof}{\addvspace {10\p@ }}
\@writefile{lot}{\addvspace {10\p@ }}
\@writefile{toc}{\contentsline {section}{\numberline {3.1}Class List}{5}{section.3.1}\protected@file@percent }
\@writefile{toc}{\contentsline {chapter}{\numberline {4}File Index}{7}{chapter.4}\protected@file@percent }
\@writefile{lof}{\addvspace {10\p@ }}
\@writefile{lot}{\addvspace {10\p@ }}
\@writefile{toc}{\contentsline {section}{\numberline {4.1}File List}{7}{section.4.1}\protected@file@percent }
\@writefile{toc}{\contentsline {chapter}{\numberline {5}Namespace Documentation}{9}{chapter.5}\protected@file@percent }
\@writefile{lof}{\addvspace {10\p@ }}
\@writefile{lot}{\addvspace {10\p@ }}
\@writefile{toc}{\contentsline {section}{\numberline {5.1}Package algs}{9}{section.5.1}\protected@file@percent }
\newlabel{namespacealgs}{{5.1}{9}{Package algs}{section.5.1}{}}
\@writefile{toc}{\contentsline {section}{\numberline {5.2}Package bixi\discretionary {\mbox  {\scriptsize  $\hookleftarrow  $}}{}{}Trip}{9}{section.5.2}\protected@file@percent }
\newlabel{namespacebixi_trip}{{5.2}{9}{Package bixi\+Trip}{section.5.2}{}}
\gdef \LT@i {\LT@entry 
    {3}{32.31168pt}\LT@entry 
    {3}{171.75955pt}}
\@writefile{toc}{\contentsline {chapter}{\numberline {6}Class Documentation}{11}{chapter.6}\protected@file@percent }
\@writefile{lof}{\addvspace {10\p@ }}
\@writefile{lot}{\addvspace {10\p@ }}
\@writefile{toc}{\contentsline {section}{\numberline {6.1}algs.\discretionary {\mbox  {\scriptsize  $\hookleftarrow  $}}{}{}Binary\discretionary {\mbox  {\scriptsize  $\hookleftarrow  $}}{}{}Search Class Reference}{11}{section.6.1}\protected@file@percent }
\newlabel{classalgs_1_1_binary_search}{{6.1}{11}{algs.\+Binary\+Search Class Reference}{section.6.1}{}}
\@writefile{toc}{\contentsline {subsection}{\numberline {6.1.1}Member Function Documentation}{11}{subsection.6.1.1}\protected@file@percent }
\newlabel{classalgs_1_1_binary_search_aeef0a6719b78b0ae5856564987a9e213}{{6.1.1}{11}{Member Function Documentation}{subsection.6.1.1}{}}
\@writefile{toc}{\contentsline {subsubsection}{\numberline {6.1.1.1}pathSearch()}{11}{subsubsection.6.1.1.1}\protected@file@percent }
\newlabel{classalgs_1_1_binary_search_a35f672432d9ec8c23fb60ca4d356e32d}{{6.1.1.1}{11}{\texorpdfstring {pathSearch()}{pathSearch()}}{table.6.1}{}}
\gdef \LT@ii {\LT@entry 
    {3}{32.31168pt}\LT@entry 
    {3}{181.62323pt}}
\@writefile{toc}{\contentsline {subsubsection}{\numberline {6.1.1.2}stationSearch()}{12}{subsubsection.6.1.1.2}\protected@file@percent }
\@writefile{toc}{\contentsline {section}{\numberline {6.2}bixi\discretionary {\mbox  {\scriptsize  $\hookleftarrow  $}}{}{}Trip.\discretionary {\mbox  {\scriptsize  $\hookleftarrow  $}}{}{}Bixi\discretionary {\mbox  {\scriptsize  $\hookleftarrow  $}}{}{}Trip\discretionary {\mbox  {\scriptsize  $\hookleftarrow  $}}{}{}UI Class Reference}{12}{section.6.2}\protected@file@percent }
\newlabel{classbixi_trip_1_1_bixi_trip_u_i}{{6.2}{12}{bixi\+Trip.\+Bixi\+Trip\+UI Class Reference}{section.6.2}{}}
\@writefile{toc}{\contentsline {subsection}{\numberline {6.2.1}Constructor \& Destructor Documentation}{13}{subsection.6.2.1}\protected@file@percent }
\newlabel{classbixi_trip_1_1_bixi_trip_u_i_ae674417f9bb90f342180170505574e13}{{6.2.1}{13}{Constructor \& Destructor Documentation}{subsection.6.2.1}{}}
\@writefile{toc}{\contentsline {subsubsection}{\numberline {6.2.1.1}BixiTripUI()}{13}{subsubsection.6.2.1.1}\protected@file@percent }
\@writefile{toc}{\contentsline {subsection}{\numberline {6.2.2}Member Function Documentation}{13}{subsection.6.2.2}\protected@file@percent }
\newlabel{classbixi_trip_1_1_bixi_trip_u_i_af1051b8b7b43541126da0f79236b1071}{{6.2.2}{13}{Member Function Documentation}{subsection.6.2.2}{}}
\@writefile{toc}{\contentsline {subsubsection}{\numberline {6.2.2.1}main()}{13}{subsubsection.6.2.2.1}\protected@file@percent }
\gdef \LT@iii {\LT@entry 
    {3}{30.3047pt}\LT@entry 
    {3}{166.45009pt}}
\newlabel{classbixi_trip_1_1_bixi_trip_u_i_a1c7a94ddff7b730fcedb5f2b56036a62}{{6.2.2.1}{14}{\texorpdfstring {main()}{main()}}{table.6.3}{}}
\@writefile{toc}{\contentsline {subsubsection}{\numberline {6.2.2.2}parse()}{14}{subsubsection.6.2.2.2}\protected@file@percent }
\newlabel{classbixi_trip_1_1_bixi_trip_u_i_a261af00c8de9999d6cb184247b10d4b3}{{6.2.2.2}{14}{\texorpdfstring {parse()}{parse()}}{subsubsection.6.2.2.2}{}}
\@writefile{toc}{\contentsline {subsubsection}{\numberline {6.2.2.3}populate()}{14}{subsubsection.6.2.2.3}\protected@file@percent }
\@writefile{toc}{\contentsline {subsection}{\numberline {6.2.3}Member Data Documentation}{14}{subsection.6.2.3}\protected@file@percent }
\newlabel{classbixi_trip_1_1_bixi_trip_u_i_a10d0ebca483978385c45f4df679c0d35}{{6.2.3}{14}{Member Data Documentation}{subsection.6.2.3}{}}
\@writefile{toc}{\contentsline {subsubsection}{\numberline {6.2.3.1}bixiRed}{14}{subsubsection.6.2.3.1}\protected@file@percent }
\newlabel{classbixi_trip_1_1_bixi_trip_u_i_a2d5b1e3aa9fd371397776ef96b50ace7}{{6.2.3.1}{14}{\texorpdfstring {bixiRed}{bixiRed}}{subsubsection.6.2.3.1}{}}
\@writefile{toc}{\contentsline {subsubsection}{\numberline {6.2.3.2}contentPane}{14}{subsubsection.6.2.3.2}\protected@file@percent }
\newlabel{classbixi_trip_1_1_bixi_trip_u_i_a3bc39d9237e3fad8218bac3fc93d0a60}{{6.2.3.2}{14}{\texorpdfstring {contentPane}{contentPane}}{subsubsection.6.2.3.2}{}}
\@writefile{toc}{\contentsline {subsubsection}{\numberline {6.2.3.3}directionsButton}{14}{subsubsection.6.2.3.3}\protected@file@percent }
\newlabel{classbixi_trip_1_1_bixi_trip_u_i_a25d4c32ec0a593bf680198672ca269f4}{{6.2.3.3}{14}{\texorpdfstring {directionsButton}{directionsButton}}{subsubsection.6.2.3.3}{}}
\@writefile{toc}{\contentsline {subsubsection}{\numberline {6.2.3.4}endStationComboBox}{15}{subsubsection.6.2.3.4}\protected@file@percent }
\newlabel{classbixi_trip_1_1_bixi_trip_u_i_ac3c72eb2974b6ba55c65db8788d0bec2}{{6.2.3.4}{15}{\texorpdfstring {endStationComboBox}{endStationComboBox}}{subsubsection.6.2.3.4}{}}
\@writefile{toc}{\contentsline {subsubsection}{\numberline {6.2.3.5}inspectButton}{15}{subsubsection.6.2.3.5}\protected@file@percent }
\newlabel{classbixi_trip_1_1_bixi_trip_u_i_a871f2a8bf74dfcf4c49b3b058f183503}{{6.2.3.5}{15}{\texorpdfstring {inspectButton}{inspectButton}}{subsubsection.6.2.3.5}{}}
\@writefile{toc}{\contentsline {subsubsection}{\numberline {6.2.3.6}labelFont}{15}{subsubsection.6.2.3.6}\protected@file@percent }
\newlabel{classbixi_trip_1_1_bixi_trip_u_i_a0b51340c6dd4eee57080cecdc15d5bf2}{{6.2.3.6}{15}{\texorpdfstring {labelFont}{labelFont}}{subsubsection.6.2.3.6}{}}
\@writefile{toc}{\contentsline {subsubsection}{\numberline {6.2.3.7}progressBar}{15}{subsubsection.6.2.3.7}\protected@file@percent }
\newlabel{classbixi_trip_1_1_bixi_trip_u_i_a6832b76e076b12e8c647c9bc8bbe1193}{{6.2.3.7}{15}{\texorpdfstring {progressBar}{progressBar}}{subsubsection.6.2.3.7}{}}
\@writefile{toc}{\contentsline {subsubsection}{\numberline {6.2.3.8}smallTextFont16}{15}{subsubsection.6.2.3.8}\protected@file@percent }
\newlabel{classbixi_trip_1_1_bixi_trip_u_i_a482085d9e978008e6adf2986a1c37e4c}{{6.2.3.8}{15}{\texorpdfstring {smallTextFont16}{smallTextFont16}}{subsubsection.6.2.3.8}{}}
\@writefile{toc}{\contentsline {subsubsection}{\numberline {6.2.3.9}startStationComboBox}{15}{subsubsection.6.2.3.9}\protected@file@percent }
\newlabel{classbixi_trip_1_1_bixi_trip_u_i_aeff23e50bc29089f8578e94f23704928}{{6.2.3.9}{15}{\texorpdfstring {startStationComboBox}{startStationComboBox}}{subsubsection.6.2.3.9}{}}
\@writefile{toc}{\contentsline {subsubsection}{\numberline {6.2.3.10}stationsList}{15}{subsubsection.6.2.3.10}\protected@file@percent }
\newlabel{classbixi_trip_1_1_bixi_trip_u_i_a8ede5de69392d10fa3fd765c9cfad4f2}{{6.2.3.10}{15}{\texorpdfstring {stationsList}{stationsList}}{subsubsection.6.2.3.10}{}}
\@writefile{toc}{\contentsline {subsubsection}{\numberline {6.2.3.11}statusField}{15}{subsubsection.6.2.3.11}\protected@file@percent }
\newlabel{classbixi_trip_1_1_bixi_trip_u_i_a39e034210cdf23a7d08709988d9c508c}{{6.2.3.11}{15}{\texorpdfstring {statusField}{statusField}}{subsubsection.6.2.3.11}{}}
\gdef \LT@iv {\LT@entry 
    {3}{52.31828pt}\LT@entry 
    {3}{173.40678pt}}
\@writefile{toc}{\contentsline {subsubsection}{\numberline {6.2.3.12}swapButton}{16}{subsubsection.6.2.3.12}\protected@file@percent }
\newlabel{classbixi_trip_1_1_bixi_trip_u_i_ab0769d8388253b775c1c811b6c3f3489}{{6.2.3.12}{16}{\texorpdfstring {swapButton}{swapButton}}{subsubsection.6.2.3.12}{}}
\@writefile{toc}{\contentsline {subsubsection}{\numberline {6.2.3.13}testButton}{16}{subsubsection.6.2.3.13}\protected@file@percent }
\@writefile{toc}{\contentsline {section}{\numberline {6.3}bixi\discretionary {\mbox  {\scriptsize  $\hookleftarrow  $}}{}{}Trip.\discretionary {\mbox  {\scriptsize  $\hookleftarrow  $}}{}{}Button\discretionary {\mbox  {\scriptsize  $\hookleftarrow  $}}{}{}Handler Class Reference}{16}{section.6.3}\protected@file@percent }
\newlabel{classbixi_trip_1_1_button_handler}{{6.3}{16}{bixi\+Trip.\+Button\+Handler Class Reference}{section.6.3}{}}
\@writefile{toc}{\contentsline {subsection}{\numberline {6.3.1}Member Function Documentation}{16}{subsection.6.3.1}\protected@file@percent }
\newlabel{classbixi_trip_1_1_button_handler_af0fe6cab48b543287ac46eba6ae7f014}{{6.3.1}{16}{Member Function Documentation}{subsection.6.3.1}{}}
\@writefile{toc}{\contentsline {subsubsection}{\numberline {6.3.1.1}inspect()}{16}{subsubsection.6.3.1.1}\protected@file@percent }
\newlabel{classbixi_trip_1_1_button_handler_a861d0be566d6ae2d6da28c9319dcfd4d}{{6.3.1.1}{16}{\texorpdfstring {inspect()}{inspect()}}{table.6.4}{}}
\gdef \LT@v {\LT@entry 
    {3}{102.9242pt}\LT@entry 
    {3}{168.19601pt}}
\@writefile{toc}{\contentsline {subsubsection}{\numberline {6.3.1.2}swap()}{17}{subsubsection.6.3.1.2}\protected@file@percent }
\newlabel{classbixi_trip_1_1_button_handler_a1e867ef99d66e58ed0cc3bcf915a28ab}{{6.3.1.2}{17}{\texorpdfstring {swap()}{swap()}}{table.6.5}{}}
\@writefile{toc}{\contentsline {subsubsection}{\numberline {6.3.1.3}test()}{17}{subsubsection.6.3.1.3}\protected@file@percent }
\@writefile{toc}{\contentsline {section}{\numberline {6.4}bixi\discretionary {\mbox  {\scriptsize  $\hookleftarrow  $}}{}{}Trip.\discretionary {\mbox  {\scriptsize  $\hookleftarrow  $}}{}{}Coord Class Reference}{17}{section.6.4}\protected@file@percent }
\newlabel{classbixi_trip_1_1_coord}{{6.4}{17}{bixi\+Trip.\+Coord Class Reference}{section.6.4}{}}
\@writefile{toc}{\contentsline {subsection}{\numberline {6.4.1}Constructor \& Destructor Documentation}{17}{subsection.6.4.1}\protected@file@percent }
\newlabel{classbixi_trip_1_1_coord_aed1287cb6853d2ef38a2e6ffcc19ebfc}{{6.4.1}{17}{Constructor \& Destructor Documentation}{subsection.6.4.1}{}}
\@writefile{toc}{\contentsline {subsubsection}{\numberline {6.4.1.1}Coord()}{17}{subsubsection.6.4.1.1}\protected@file@percent }
\gdef \LT@vi {\LT@entry 
    {3}{34.81357pt}\LT@entry 
    {3}{68.93661pt}}
\@writefile{toc}{\contentsline {subsection}{\numberline {6.4.2}Member Function Documentation}{18}{subsection.6.4.2}\protected@file@percent }
\newlabel{classbixi_trip_1_1_coord_aad3d3d4823926ead1df2de3d398adfaa}{{6.4.2}{18}{Member Function Documentation}{subsection.6.4.2}{}}
\@writefile{toc}{\contentsline {subsubsection}{\numberline {6.4.2.1}getLat()}{18}{subsubsection.6.4.2.1}\protected@file@percent }
\newlabel{classbixi_trip_1_1_coord_a0c3a40d339bc01763abd836c5faa9b4e}{{6.4.2.1}{18}{\texorpdfstring {getLat()}{getLat()}}{subsubsection.6.4.2.1}{}}
\@writefile{toc}{\contentsline {subsubsection}{\numberline {6.4.2.2}getLong()}{18}{subsubsection.6.4.2.2}\protected@file@percent }
\newlabel{classbixi_trip_1_1_coord_ad768fa5438274e3f7d80ed3873bcac1f}{{6.4.2.2}{18}{\texorpdfstring {getLong()}{getLong()}}{subsubsection.6.4.2.2}{}}
\@writefile{toc}{\contentsline {subsubsection}{\numberline {6.4.2.3}toString()}{18}{subsubsection.6.4.2.3}\protected@file@percent }
\@writefile{toc}{\contentsline {subsection}{\numberline {6.4.3}Member Data Documentation}{19}{subsection.6.4.3}\protected@file@percent }
\newlabel{classbixi_trip_1_1_coord_a7aa05c4d6e49345434163f93ec54a7f2}{{6.4.3}{19}{Member Data Documentation}{subsection.6.4.3}{}}
\@writefile{toc}{\contentsline {subsubsection}{\numberline {6.4.3.1}latitude}{19}{subsubsection.6.4.3.1}\protected@file@percent }
\newlabel{classbixi_trip_1_1_coord_aab11386135b93bd9c1db4cc6b3ce5dd2}{{6.4.3.1}{19}{\texorpdfstring {latitude}{latitude}}{subsubsection.6.4.3.1}{}}
\@writefile{toc}{\contentsline {subsubsection}{\numberline {6.4.3.2}longitude}{19}{subsubsection.6.4.3.2}\protected@file@percent }
\@writefile{toc}{\contentsline {section}{\numberline {6.5}bixi\discretionary {\mbox  {\scriptsize  $\hookleftarrow  $}}{}{}Trip.\discretionary {\mbox  {\scriptsize  $\hookleftarrow  $}}{}{}Direction\discretionary {\mbox  {\scriptsize  $\hookleftarrow  $}}{}{}Handler Class Reference}{19}{section.6.5}\protected@file@percent }
\newlabel{classbixi_trip_1_1_direction_handler}{{6.5}{19}{bixi\+Trip.\+Direction\+Handler Class Reference}{section.6.5}{}}
\@writefile{toc}{\contentsline {subsection}{\numberline {6.5.1}Member Function Documentation}{19}{subsection.6.5.1}\protected@file@percent }
\newlabel{classbixi_trip_1_1_direction_handler_aa729df1f1e49df363a58545b812af501}{{6.5.1}{19}{Member Function Documentation}{subsection.6.5.1}{}}
\@writefile{toc}{\contentsline {subsubsection}{\numberline {6.5.1.1}loadUrl()}{19}{subsubsection.6.5.1.1}\protected@file@percent }
\gdef \LT@vii {\LT@entry 
    {3}{22.93369pt}\LT@entry 
    {3}{199.75769pt}}
\gdef \LT@viii {\LT@entry 
    {3}{102.9242pt}\LT@entry 
    {3}{236.11743pt}}
\newlabel{classbixi_trip_1_1_direction_handler_a184d1eb841fe87d5fef6537586d820ab}{{6.5.1.1}{20}{\texorpdfstring {loadUrl()}{loadUrl()}}{table.6.7}{}}
\@writefile{toc}{\contentsline {subsubsection}{\numberline {6.5.1.2}run()}{20}{subsubsection.6.5.1.2}\protected@file@percent }
\@writefile{toc}{\contentsline {section}{\numberline {6.6}algs.\discretionary {\mbox  {\scriptsize  $\hookleftarrow  $}}{}{}Graph Class Reference}{20}{section.6.6}\protected@file@percent }
\newlabel{classalgs_1_1_graph}{{6.6}{20}{algs.\+Graph Class Reference}{section.6.6}{}}
\gdef \LT@ix {\LT@entry 
    {3}{17.8039pt}\LT@entry 
    {3}{93.4161pt}}
\gdef \LT@x {\LT@entry 
    {3}{17.29996pt}\LT@entry 
    {3}{160.94176pt}}
\@writefile{toc}{\contentsline {subsection}{\numberline {6.6.1}Detailed Description}{21}{subsection.6.6.1}\protected@file@percent }
\@writefile{toc}{\contentsline {subsection}{\numberline {6.6.2}Constructor \& Destructor Documentation}{21}{subsection.6.6.2}\protected@file@percent }
\newlabel{classalgs_1_1_graph_a2adb7b759bb9d0e24b6afdcafd1a1d44}{{6.6.2}{21}{Constructor \& Destructor Documentation}{subsection.6.6.2}{}}
\@writefile{toc}{\contentsline {subsubsection}{\numberline {6.6.2.1}Graph()}{21}{subsubsection.6.6.2.1}\protected@file@percent }
\@writefile{toc}{\contentsline {subsection}{\numberline {6.6.3}Member Function Documentation}{21}{subsection.6.6.3}\protected@file@percent }
\newlabel{classalgs_1_1_graph_ad17699f3786e2cabcd343d87dcc0dc85}{{6.6.3}{21}{Member Function Documentation}{subsection.6.6.3}{}}
\@writefile{toc}{\contentsline {subsubsection}{\numberline {6.6.3.1}addPath()}{21}{subsubsection.6.6.3.1}\protected@file@percent }
\newlabel{classalgs_1_1_graph_a52b0a26113b91657f71c320cd983dff4}{{6.6.3.1}{21}{\texorpdfstring {addPath()}{addPath()}}{table.6.9}{}}
\@writefile{toc}{\contentsline {subsubsection}{\numberline {6.6.3.2}adj()}{21}{subsubsection.6.6.3.2}\protected@file@percent }
\gdef \LT@xi {\LT@entry 
    {3}{52.40813pt}\LT@entry 
    {3}{94.54091pt}}
\newlabel{classalgs_1_1_graph_a80d5834312ba72464c43477296e66936}{{6.6.3.2}{22}{\texorpdfstring {adj()}{adj()}}{table.6.10}{}}
\@writefile{toc}{\contentsline {subsubsection}{\numberline {6.6.3.3}E()}{22}{subsubsection.6.6.3.3}\protected@file@percent }
\newlabel{classalgs_1_1_graph_a819b57c7dd9e8502cc985cf096932670}{{6.6.3.3}{22}{\texorpdfstring {E()}{E()}}{subsubsection.6.6.3.3}{}}
\@writefile{toc}{\contentsline {subsubsection}{\numberline {6.6.3.4}edges()}{22}{subsubsection.6.6.3.4}\protected@file@percent }
\newlabel{classalgs_1_1_graph_a6d5334c716b73e072199bb9ebb82cfd1}{{6.6.3.4}{22}{\texorpdfstring {edges()}{edges()}}{subsubsection.6.6.3.4}{}}
\@writefile{toc}{\contentsline {subsubsection}{\numberline {6.6.3.5}getPath()}{22}{subsubsection.6.6.3.5}\protected@file@percent }
\newlabel{classalgs_1_1_graph_a70956e7169710f345f8b393accca6ba0}{{6.6.3.5}{22}{\texorpdfstring {getPath()}{getPath()}}{table.6.11}{}}
\@writefile{toc}{\contentsline {subsubsection}{\numberline {6.6.3.6}V()}{23}{subsubsection.6.6.3.6}\protected@file@percent }
\@writefile{toc}{\contentsline {subsection}{\numberline {6.6.4}Member Data Documentation}{23}{subsection.6.6.4}\protected@file@percent }
\newlabel{classalgs_1_1_graph_a868fa746b39f57a58132e58af91f5f2d}{{6.6.4}{23}{Member Data Documentation}{subsection.6.6.4}{}}
\@writefile{toc}{\contentsline {subsubsection}{\numberline {6.6.4.1}adj}{23}{subsubsection.6.6.4.1}\protected@file@percent }
\newlabel{classalgs_1_1_graph_ad752228e31b92bffc085937e7aba2eb5}{{6.6.4.1}{23}{\texorpdfstring {adj}{adj}}{subsubsection.6.6.4.1}{}}
\@writefile{toc}{\contentsline {subsubsection}{\numberline {6.6.4.2}E}{23}{subsubsection.6.6.4.2}\protected@file@percent }
\newlabel{classalgs_1_1_graph_a03d78eb2901f4aebc9e1627adc441d1b}{{6.6.4.2}{23}{\texorpdfstring {E}{E}}{subsubsection.6.6.4.2}{}}
\@writefile{toc}{\contentsline {subsubsection}{\numberline {6.6.4.3}V}{23}{subsubsection.6.6.4.3}\protected@file@percent }
\@writefile{toc}{\contentsline {section}{\numberline {6.7}algs.\discretionary {\mbox  {\scriptsize  $\hookleftarrow  $}}{}{}Index\discretionary {\mbox  {\scriptsize  $\hookleftarrow  $}}{}{}Min\discretionary {\mbox  {\scriptsize  $\hookleftarrow  $}}{}{}PQ$<$ Key extends Comparable$<$ Key $>$.Heap\discretionary {\mbox  {\scriptsize  $\hookleftarrow  $}}{}{}Iterator Class Reference}{23}{section.6.7}\protected@file@percent }
\newlabel{classalgs_1_1_index_min_p_q_1_1_heap_iterator}{{6.7}{23}{algs.\+Index\+Min\+PQ$<$ Key extends Comparable$<$ Key $>$.Heap\+Iterator Class Reference}{section.6.7}{}}
\@writefile{toc}{\contentsline {subsection}{\numberline {6.7.1}Constructor \& Destructor Documentation}{24}{subsection.6.7.1}\protected@file@percent }
\newlabel{classalgs_1_1_index_min_p_q_1_1_heap_iterator_a63b9cdb495a36ece1c6cf37b9bbab556}{{6.7.1}{24}{Constructor \& Destructor Documentation}{subsection.6.7.1}{}}
\@writefile{toc}{\contentsline {subsubsection}{\numberline {6.7.1.1}HeapIterator()}{24}{subsubsection.6.7.1.1}\protected@file@percent }
\@writefile{toc}{\contentsline {subsection}{\numberline {6.7.2}Member Function Documentation}{24}{subsection.6.7.2}\protected@file@percent }
\newlabel{classalgs_1_1_index_min_p_q_1_1_heap_iterator_a91c0f3ca807c08653f6eb36749d8bb46}{{6.7.2}{24}{Member Function Documentation}{subsection.6.7.2}{}}
\@writefile{toc}{\contentsline {subsubsection}{\numberline {6.7.2.1}hasNext()}{24}{subsubsection.6.7.2.1}\protected@file@percent }
\newlabel{classalgs_1_1_index_min_p_q_1_1_heap_iterator_a7d5c1173f62b53d83b44d3c5e9af2f51}{{6.7.2.1}{24}{\texorpdfstring {hasNext()}{hasNext()}}{subsubsection.6.7.2.1}{}}
\@writefile{toc}{\contentsline {subsubsection}{\numberline {6.7.2.2}next()}{24}{subsubsection.6.7.2.2}\protected@file@percent }
\newlabel{classalgs_1_1_index_min_p_q_1_1_heap_iterator_aa2fe199d89cd6876195ac4fbda6f1b21}{{6.7.2.2}{24}{\texorpdfstring {next()}{next()}}{subsubsection.6.7.2.2}{}}
\@writefile{toc}{\contentsline {subsubsection}{\numberline {6.7.2.3}remove()}{24}{subsubsection.6.7.2.3}\protected@file@percent }
\@writefile{toc}{\contentsline {subsection}{\numberline {6.7.3}Member Data Documentation}{24}{subsection.6.7.3}\protected@file@percent }
\newlabel{classalgs_1_1_index_min_p_q_1_1_heap_iterator_aa1c91fce53c58a51331bdb10f10d170e}{{6.7.3}{24}{Member Data Documentation}{subsection.6.7.3}{}}
\@writefile{toc}{\contentsline {subsubsection}{\numberline {6.7.3.1}copy}{25}{subsubsection.6.7.3.1}\protected@file@percent }
\@writefile{toc}{\contentsline {section}{\numberline {6.8}algs.\discretionary {\mbox  {\scriptsize  $\hookleftarrow  $}}{}{}Index\discretionary {\mbox  {\scriptsize  $\hookleftarrow  $}}{}{}Min\discretionary {\mbox  {\scriptsize  $\hookleftarrow  $}}{}{}PQ$<$ Key extends Comparable$<$ Key $>$ Class Template Reference}{25}{section.6.8}\protected@file@percent }
\newlabel{classalgs_1_1_index_min_p_q}{{6.8}{25}{algs.\+Index\+Min\+PQ$<$ Key extends Comparable$<$ Key $>$ Class Template Reference}{section.6.8}{}}
\gdef \LT@xii {\LT@entry 
    {3}{43.32246pt}\LT@entry 
    {3}{57.48027pt}}
\gdef \LT@xiii {\LT@entry 
    {3}{36.29869pt}\LT@entry 
    {3}{76.9289pt}}
\gdef \LT@xiv {\LT@entry 
    {3}{114.84pt}\LT@entry 
    {3}{123.79982pt}}
\@writefile{toc}{\contentsline {subsection}{\numberline {6.8.1}Detailed Description}{26}{subsection.6.8.1}\protected@file@percent }
\@writefile{toc}{\contentsline {subsection}{\numberline {6.8.2}Constructor \& Destructor Documentation}{26}{subsection.6.8.2}\protected@file@percent }
\newlabel{classalgs_1_1_index_min_p_q_a3b3b2b631d1e299d3b5706af2de30332}{{6.8.2}{26}{Constructor \& Destructor Documentation}{subsection.6.8.2}{}}
\@writefile{toc}{\contentsline {subsubsection}{\numberline {6.8.2.1}IndexMinPQ()}{26}{subsubsection.6.8.2.1}\protected@file@percent }
\@writefile{toc}{\contentsline {subsection}{\numberline {6.8.3}Member Function Documentation}{26}{subsection.6.8.3}\protected@file@percent }
\newlabel{classalgs_1_1_index_min_p_q_afdb269f9bcb140c3e0acd6a32156132c}{{6.8.3}{26}{Member Function Documentation}{subsection.6.8.3}{}}
\gdef \LT@xv {\LT@entry 
    {3}{26.44391pt}\LT@entry 
    {3}{86.1804pt}}
\gdef \LT@xvi {\LT@entry 
    {3}{117.34213pt}\LT@entry 
    {3}{182.48752pt}}
\gdef \LT@xvii {\LT@entry 
    {3}{14.79794pt}\LT@entry 
    {3}{73.16664pt}}
\gdef \LT@xviii {\LT@entry 
    {3}{26.44391pt}\LT@entry 
    {3}{86.1804pt}}
\@writefile{toc}{\contentsline {subsubsection}{\numberline {6.8.3.1}changeKey()}{27}{subsubsection.6.8.3.1}\protected@file@percent }
\newlabel{classalgs_1_1_index_min_p_q_a4e6af4c2dc32123e6cb6cdca8c56b5df}{{6.8.3.1}{27}{\texorpdfstring {changeKey()}{changeKey()}}{table.6.16}{}}
\@writefile{toc}{\contentsline {subsubsection}{\numberline {6.8.3.2}contains()}{27}{subsubsection.6.8.3.2}\protected@file@percent }
\newlabel{classalgs_1_1_index_min_p_q_a8f98708c6961c86c30671e826d4aee82}{{6.8.3.2}{27}{\texorpdfstring {contains()}{contains()}}{table.6.17}{}}
\@writefile{toc}{\contentsline {subsubsection}{\numberline {6.8.3.3}decreaseKey()}{27}{subsubsection.6.8.3.3}\protected@file@percent }
\gdef \LT@xix {\LT@entry 
    {3}{117.34213pt}\LT@entry 
    {3}{182.48752pt}}
\gdef \LT@xx {\LT@entry 
    {3}{14.79794pt}\LT@entry 
    {3}{81.17638pt}}
\gdef \LT@xxi {\LT@entry 
    {3}{117.34213pt}\LT@entry 
    {3}{182.48752pt}}
\gdef \LT@xxii {\LT@entry 
    {3}{117.34213pt}\LT@entry 
    {3}{100.78726pt}}
\newlabel{classalgs_1_1_index_min_p_q_acb05e238f0ad004b6878c5e102c0a6df}{{6.8.3.3}{28}{\texorpdfstring {decreaseKey()}{decreaseKey()}}{table.6.19}{}}
\@writefile{toc}{\contentsline {subsubsection}{\numberline {6.8.3.4}delete()}{28}{subsubsection.6.8.3.4}\protected@file@percent }
\newlabel{classalgs_1_1_index_min_p_q_af609eda4363282a5609d2f5bdd88f344}{{6.8.3.4}{28}{\texorpdfstring {delete()}{delete()}}{table.6.21}{}}
\@writefile{toc}{\contentsline {subsubsection}{\numberline {6.8.3.5}delMin()}{28}{subsubsection.6.8.3.5}\protected@file@percent }
\newlabel{classalgs_1_1_index_min_p_q_a0a508bbfc94ff31100d2c29ab25439b9}{{6.8.3.5}{28}{\texorpdfstring {delMin()}{delMin()}}{table.6.22}{}}
\@writefile{toc}{\contentsline {subsubsection}{\numberline {6.8.3.6}exch()}{28}{subsubsection.6.8.3.6}\protected@file@percent }
\gdef \LT@xxiii {\LT@entry 
    {3}{14.79794pt}\LT@entry 
    {3}{66.66006pt}}
\gdef \LT@xxiv {\LT@entry 
    {3}{14.79794pt}\LT@entry 
    {3}{100.16621pt}}
\gdef \LT@xxv {\LT@entry 
    {3}{26.44391pt}\LT@entry 
    {3}{86.1804pt}}
\gdef \LT@xxvi {\LT@entry 
    {3}{117.34213pt}\LT@entry 
    {3}{182.48752pt}}
\newlabel{classalgs_1_1_index_min_p_q_a598020b9d4124552d78b9389b6316dca}{{6.8.3.6}{29}{\texorpdfstring {exch()}{exch()}}{table.6.23}{}}
\@writefile{toc}{\contentsline {subsubsection}{\numberline {6.8.3.7}greater()}{29}{subsubsection.6.8.3.7}\protected@file@percent }
\newlabel{classalgs_1_1_index_min_p_q_ac03868c71cf1179070084e309fb54254}{{6.8.3.7}{29}{\texorpdfstring {greater()}{greater()}}{table.6.24}{}}
\@writefile{toc}{\contentsline {subsubsection}{\numberline {6.8.3.8}increaseKey()}{29}{subsubsection.6.8.3.8}\protected@file@percent }
\newlabel{classalgs_1_1_index_min_p_q_ab0605d2bcb7421d692cf82cda188db76}{{6.8.3.8}{29}{\texorpdfstring {increaseKey()}{increaseKey()}}{table.6.26}{}}
\gdef \LT@xxvii {\LT@entry 
    {3}{26.44391pt}\LT@entry 
    {3}{79.02538pt}}
\gdef \LT@xxviii {\LT@entry 
    {3}{114.84pt}\LT@entry 
    {3}{229.94345pt}}
\gdef \LT@xxix {\LT@entry 
    {3}{14.79794pt}\LT@entry 
    {3}{73.16664pt}}
\@writefile{toc}{\contentsline {subsubsection}{\numberline {6.8.3.9}insert()}{30}{subsubsection.6.8.3.9}\protected@file@percent }
\newlabel{classalgs_1_1_index_min_p_q_abfd87a3371db7c4d5ad2794da0aaffd8}{{6.8.3.9}{30}{\texorpdfstring {insert()}{insert()}}{table.6.28}{}}
\@writefile{toc}{\contentsline {subsubsection}{\numberline {6.8.3.10}isEmpty()}{30}{subsubsection.6.8.3.10}\protected@file@percent }
\newlabel{classalgs_1_1_index_min_p_q_a8c2bc03fa0c05e48d8e1deec94363f13}{{6.8.3.10}{30}{\texorpdfstring {isEmpty()}{isEmpty()}}{subsubsection.6.8.3.10}{}}
\@writefile{toc}{\contentsline {subsubsection}{\numberline {6.8.3.11}iterator()}{30}{subsubsection.6.8.3.11}\protected@file@percent }
\newlabel{classalgs_1_1_index_min_p_q_ad548c11e22be11b2dce5ac394d8799f9}{{6.8.3.11}{30}{\texorpdfstring {iterator()}{iterator()}}{subsubsection.6.8.3.11}{}}
\@writefile{toc}{\contentsline {subsubsection}{\numberline {6.8.3.12}keyOf()}{30}{subsubsection.6.8.3.12}\protected@file@percent }
\gdef \LT@xxx {\LT@entry 
    {3}{117.34213pt}\LT@entry 
    {3}{182.48752pt}}
\gdef \LT@xxxi {\LT@entry 
    {3}{117.34213pt}\LT@entry 
    {3}{100.78726pt}}
\gdef \LT@xxxii {\LT@entry 
    {3}{117.34213pt}\LT@entry 
    {3}{100.78726pt}}
\newlabel{classalgs_1_1_index_min_p_q_ad2a88e8c0454e5c971b83d8abec59757}{{6.8.3.12}{31}{\texorpdfstring {keyOf()}{keyOf()}}{table.6.30}{}}
\@writefile{toc}{\contentsline {subsubsection}{\numberline {6.8.3.13}minIndex()}{31}{subsubsection.6.8.3.13}\protected@file@percent }
\newlabel{classalgs_1_1_index_min_p_q_a86507719d5a699bfa3e68b9a5d70bc6e}{{6.8.3.13}{31}{\texorpdfstring {minIndex()}{minIndex()}}{table.6.31}{}}
\@writefile{toc}{\contentsline {subsubsection}{\numberline {6.8.3.14}minKey()}{31}{subsubsection.6.8.3.14}\protected@file@percent }
\newlabel{classalgs_1_1_index_min_p_q_aad08a93ba671657dfc772d7cdf0b909d}{{6.8.3.14}{31}{\texorpdfstring {minKey()}{minKey()}}{table.6.32}{}}
\@writefile{toc}{\contentsline {subsubsection}{\numberline {6.8.3.15}sink()}{31}{subsubsection.6.8.3.15}\protected@file@percent }
\gdef \LT@xxxiii {\LT@entry 
    {3}{17.29996pt}\LT@entry 
    {3}{100.76033pt}}
\gdef \LT@xxxiv {\LT@entry 
    {3}{17.29996pt}\LT@entry 
    {3}{89.39342pt}}
\newlabel{classalgs_1_1_index_min_p_q_a2a2291fefc5aea68de8c388e970ff943}{{6.8.3.15}{32}{\texorpdfstring {sink()}{sink()}}{table.6.33}{}}
\@writefile{toc}{\contentsline {subsubsection}{\numberline {6.8.3.16}size()}{32}{subsubsection.6.8.3.16}\protected@file@percent }
\newlabel{classalgs_1_1_index_min_p_q_a05c943d620ee6093e99f5aececf0f643}{{6.8.3.16}{32}{\texorpdfstring {size()}{size()}}{subsubsection.6.8.3.16}{}}
\@writefile{toc}{\contentsline {subsubsection}{\numberline {6.8.3.17}swim()}{32}{subsubsection.6.8.3.17}\protected@file@percent }
\@writefile{toc}{\contentsline {subsection}{\numberline {6.8.4}Member Data Documentation}{32}{subsection.6.8.4}\protected@file@percent }
\newlabel{classalgs_1_1_index_min_p_q_afef63f756ccf3e1461c54148b1cf087e}{{6.8.4}{32}{Member Data Documentation}{subsection.6.8.4}{}}
\@writefile{toc}{\contentsline {subsubsection}{\numberline {6.8.4.1}keys}{32}{subsubsection.6.8.4.1}\protected@file@percent }
\newlabel{classalgs_1_1_index_min_p_q_aa9a7f6307d6065d93d20fee6b63168ce}{{6.8.4.1}{32}{\texorpdfstring {keys}{keys}}{subsubsection.6.8.4.1}{}}
\@writefile{toc}{\contentsline {subsubsection}{\numberline {6.8.4.2}maxN}{32}{subsubsection.6.8.4.2}\protected@file@percent }
\newlabel{classalgs_1_1_index_min_p_q_a866460ab082a7e11a2d630166938b00b}{{6.8.4.2}{32}{\texorpdfstring {maxN}{maxN}}{subsubsection.6.8.4.2}{}}
\@writefile{toc}{\contentsline {subsubsection}{\numberline {6.8.4.3}n}{33}{subsubsection.6.8.4.3}\protected@file@percent }
\newlabel{classalgs_1_1_index_min_p_q_aa6511bbc23f3e8538c55ba7087b7e5db}{{6.8.4.3}{33}{\texorpdfstring {n}{n}}{subsubsection.6.8.4.3}{}}
\@writefile{toc}{\contentsline {subsubsection}{\numberline {6.8.4.4}pq}{33}{subsubsection.6.8.4.4}\protected@file@percent }
\newlabel{classalgs_1_1_index_min_p_q_a754f8f43e8f8aa0aee72bccbe61250e0}{{6.8.4.4}{33}{\texorpdfstring {pq}{pq}}{subsubsection.6.8.4.4}{}}
\@writefile{toc}{\contentsline {subsubsection}{\numberline {6.8.4.5}qp}{33}{subsubsection.6.8.4.5}\protected@file@percent }
\@writefile{toc}{\contentsline {section}{\numberline {6.9}algs.\discretionary {\mbox  {\scriptsize  $\hookleftarrow  $}}{}{}Queue$<$ Item $>$.List\discretionary {\mbox  {\scriptsize  $\hookleftarrow  $}}{}{}Iterator Class Reference}{33}{section.6.9}\protected@file@percent }
\newlabel{classalgs_1_1_queue_1_1_list_iterator}{{6.9}{33}{algs.\+Queue$<$ Item $>$.List\+Iterator Class Reference}{section.6.9}{}}
\@writefile{toc}{\contentsline {subsection}{\numberline {6.9.1}Detailed Description}{33}{subsection.6.9.1}\protected@file@percent }
\@writefile{toc}{\contentsline {subsection}{\numberline {6.9.2}Member Function Documentation}{34}{subsection.6.9.2}\protected@file@percent }
\newlabel{classalgs_1_1_queue_1_1_list_iterator_a0083d7d13c0a7e853c3716dd355ae8c3}{{6.9.2}{34}{Member Function Documentation}{subsection.6.9.2}{}}
\@writefile{toc}{\contentsline {subsubsection}{\numberline {6.9.2.1}hasNext()}{34}{subsubsection.6.9.2.1}\protected@file@percent }
\newlabel{classalgs_1_1_queue_1_1_list_iterator_ace6f697ea1d5dea10b593c49fa8e55bf}{{6.9.2.1}{34}{\texorpdfstring {hasNext()}{hasNext()}}{subsubsection.6.9.2.1}{}}
\@writefile{toc}{\contentsline {subsubsection}{\numberline {6.9.2.2}next()}{34}{subsubsection.6.9.2.2}\protected@file@percent }
\newlabel{classalgs_1_1_queue_1_1_list_iterator_a9a1758f29cfdd04f1eb76a62e40822bb}{{6.9.2.2}{34}{\texorpdfstring {next()}{next()}}{subsubsection.6.9.2.2}{}}
\@writefile{toc}{\contentsline {subsubsection}{\numberline {6.9.2.3}remove()}{34}{subsubsection.6.9.2.3}\protected@file@percent }
\@writefile{toc}{\contentsline {subsection}{\numberline {6.9.3}Member Data Documentation}{34}{subsection.6.9.3}\protected@file@percent }
\newlabel{classalgs_1_1_queue_1_1_list_iterator_a07cf2ec7fd344b48db0bb9d42bd35d42}{{6.9.3}{34}{Member Data Documentation}{subsection.6.9.3}{}}
\@writefile{toc}{\contentsline {subsubsection}{\numberline {6.9.3.1}current}{34}{subsubsection.6.9.3.1}\protected@file@percent }
\@writefile{toc}{\contentsline {section}{\numberline {6.10}algs.\discretionary {\mbox  {\scriptsize  $\hookleftarrow  $}}{}{}Stack$<$ Item $>$.List\discretionary {\mbox  {\scriptsize  $\hookleftarrow  $}}{}{}Iterator Class Reference}{34}{section.6.10}\protected@file@percent }
\newlabel{classalgs_1_1_stack_1_1_list_iterator}{{6.10}{34}{algs.\+Stack$<$ Item $>$.List\+Iterator Class Reference}{section.6.10}{}}
\@writefile{toc}{\contentsline {subsection}{\numberline {6.10.1}Detailed Description}{35}{subsection.6.10.1}\protected@file@percent }
\@writefile{toc}{\contentsline {subsection}{\numberline {6.10.2}Member Function Documentation}{35}{subsection.6.10.2}\protected@file@percent }
\newlabel{classalgs_1_1_stack_1_1_list_iterator_a3a2c5e12693a944bfbb5003c843f9768}{{6.10.2}{35}{Member Function Documentation}{subsection.6.10.2}{}}
\@writefile{toc}{\contentsline {subsubsection}{\numberline {6.10.2.1}hasNext()}{35}{subsubsection.6.10.2.1}\protected@file@percent }
\newlabel{classalgs_1_1_stack_1_1_list_iterator_aac87c13d9e04c86237bd7fbc33d8c547}{{6.10.2.1}{35}{\texorpdfstring {hasNext()}{hasNext()}}{subsubsection.6.10.2.1}{}}
\@writefile{toc}{\contentsline {subsubsection}{\numberline {6.10.2.2}next()}{35}{subsubsection.6.10.2.2}\protected@file@percent }
\newlabel{classalgs_1_1_stack_1_1_list_iterator_a1c5dc1c0fbf85621d03d655f87b5406f}{{6.10.2.2}{35}{\texorpdfstring {next()}{next()}}{subsubsection.6.10.2.2}{}}
\@writefile{toc}{\contentsline {subsubsection}{\numberline {6.10.2.3}remove()}{35}{subsubsection.6.10.2.3}\protected@file@percent }
\@writefile{toc}{\contentsline {subsection}{\numberline {6.10.3}Member Data Documentation}{35}{subsection.6.10.3}\protected@file@percent }
\newlabel{classalgs_1_1_stack_1_1_list_iterator_afffe7a5f679be0f44b1a469d5e9b5cbc}{{6.10.3}{35}{Member Data Documentation}{subsection.6.10.3}{}}
\@writefile{toc}{\contentsline {subsubsection}{\numberline {6.10.3.1}current}{36}{subsubsection.6.10.3.1}\protected@file@percent }
\@writefile{toc}{\contentsline {section}{\numberline {6.11}algs.\discretionary {\mbox  {\scriptsize  $\hookleftarrow  $}}{}{}Queue$<$ Item $>$.Node Class Reference}{36}{section.6.11}\protected@file@percent }
\newlabel{classalgs_1_1_queue_1_1_node}{{6.11}{36}{algs.\+Queue$<$ Item $>$.Node Class Reference}{section.6.11}{}}
\@writefile{toc}{\contentsline {subsection}{\numberline {6.11.1}Detailed Description}{36}{subsection.6.11.1}\protected@file@percent }
\@writefile{toc}{\contentsline {section}{\numberline {6.12}algs.\discretionary {\mbox  {\scriptsize  $\hookleftarrow  $}}{}{}Stack$<$ Item $>$.Node Class Reference}{36}{section.6.12}\protected@file@percent }
\newlabel{classalgs_1_1_stack_1_1_node}{{6.12}{36}{algs.\+Stack$<$ Item $>$.Node Class Reference}{section.6.12}{}}
\@writefile{toc}{\contentsline {subsection}{\numberline {6.12.1}Detailed Description}{36}{subsection.6.12.1}\protected@file@percent }
\@writefile{toc}{\contentsline {section}{\numberline {6.13}bixi\discretionary {\mbox  {\scriptsize  $\hookleftarrow  $}}{}{}Trip.\discretionary {\mbox  {\scriptsize  $\hookleftarrow  $}}{}{}Parse\discretionary {\mbox  {\scriptsize  $\hookleftarrow  $}}{}{}Worker Class Reference}{36}{section.6.13}\protected@file@percent }
\newlabel{classbixi_trip_1_1_parse_worker}{{6.13}{36}{bixi\+Trip.\+Parse\+Worker Class Reference}{section.6.13}{}}
\gdef \LT@xxxv {\LT@entry 
    {3}{77.32867pt}\LT@entry 
    {3}{123.37682pt}}
\gdef \LT@xxxvi {\LT@entry 
    {3}{52.31828pt}\LT@entry 
    {3}{394.30653pt}}
\@writefile{toc}{\contentsline {subsection}{\numberline {6.13.1}Constructor \& Destructor Documentation}{37}{subsection.6.13.1}\protected@file@percent }
\newlabel{classbixi_trip_1_1_parse_worker_ae815d139795d524976977f54bdc1dec5}{{6.13.1}{37}{Constructor \& Destructor Documentation}{subsection.6.13.1}{}}
\@writefile{toc}{\contentsline {subsubsection}{\numberline {6.13.1.1}ParseWorker()}{37}{subsubsection.6.13.1.1}\protected@file@percent }
\@writefile{toc}{\contentsline {subsection}{\numberline {6.13.2}Member Function Documentation}{37}{subsection.6.13.2}\protected@file@percent }
\newlabel{classbixi_trip_1_1_parse_worker_a6a89ef43c5510774bcfed23086261fda}{{6.13.2}{37}{Member Function Documentation}{subsection.6.13.2}{}}
\@writefile{toc}{\contentsline {subsubsection}{\numberline {6.13.2.1}doInBackground()}{37}{subsubsection.6.13.2.1}\protected@file@percent }
\@writefile{toc}{\contentsline {subsection}{\numberline {6.13.3}Member Data Documentation}{38}{subsection.6.13.3}\protected@file@percent }
\newlabel{classbixi_trip_1_1_parse_worker_a719683a63412956d7704d49b38883f58}{{6.13.3}{38}{Member Data Documentation}{subsection.6.13.3}{}}
\@writefile{toc}{\contentsline {subsubsection}{\numberline {6.13.3.1}bixiRed}{38}{subsubsection.6.13.3.1}\protected@file@percent }
\@writefile{toc}{\contentsline {section}{\numberline {6.14}bixi\discretionary {\mbox  {\scriptsize  $\hookleftarrow  $}}{}{}Trip.\discretionary {\mbox  {\scriptsize  $\hookleftarrow  $}}{}{}Past\discretionary {\mbox  {\scriptsize  $\hookleftarrow  $}}{}{}Trip Class Reference}{38}{section.6.14}\protected@file@percent }
\newlabel{classbixi_trip_1_1_past_trip}{{6.14}{38}{bixi\+Trip.\+Past\+Trip Class Reference}{section.6.14}{}}
\gdef \LT@xxxvii {\LT@entry 
    {3}{57.17804pt}\LT@entry 
    {3}{86.4771pt}}
\gdef \LT@xxxviii {\LT@entry 
    {3}{25.43558pt}\LT@entry 
    {3}{120.08263pt}}
\@writefile{toc}{\contentsline {subsection}{\numberline {6.14.1}Constructor \& Destructor Documentation}{39}{subsection.6.14.1}\protected@file@percent }
\newlabel{classbixi_trip_1_1_past_trip_a4262e6838c00e53e66ba92d6aae1ba0d}{{6.14.1}{39}{Constructor \& Destructor Documentation}{subsection.6.14.1}{}}
\@writefile{toc}{\contentsline {subsubsection}{\numberline {6.14.1.1}PastTrip()}{39}{subsubsection.6.14.1.1}\protected@file@percent }
\@writefile{toc}{\contentsline {subsection}{\numberline {6.14.2}Member Function Documentation}{39}{subsection.6.14.2}\protected@file@percent }
\newlabel{classbixi_trip_1_1_past_trip_a0d2c4014f2bdcbd63de61b73e0600677}{{6.14.2}{39}{Member Function Documentation}{subsection.6.14.2}{}}
\@writefile{toc}{\contentsline {subsubsection}{\numberline {6.14.2.1}compareTo()}{39}{subsubsection.6.14.2.1}\protected@file@percent }
\newlabel{classbixi_trip_1_1_past_trip_aa07acbbc6cf285748e1091df386c4fad}{{6.14.2.1}{40}{\texorpdfstring {compareTo()}{compareTo()}}{table.6.38}{}}
\@writefile{toc}{\contentsline {subsubsection}{\numberline {6.14.2.2}getDuration()}{40}{subsubsection.6.14.2.2}\protected@file@percent }
\newlabel{classbixi_trip_1_1_past_trip_af1343f59d963570bd31707d06ef7f2b2}{{6.14.2.2}{40}{\texorpdfstring {getDuration()}{getDuration()}}{subsubsection.6.14.2.2}{}}
\@writefile{toc}{\contentsline {subsubsection}{\numberline {6.14.2.3}getEndCode()}{40}{subsubsection.6.14.2.3}\protected@file@percent }
\newlabel{classbixi_trip_1_1_past_trip_aaab11aa9ba74ad7f393e9d44393708db}{{6.14.2.3}{40}{\texorpdfstring {getEndCode()}{getEndCode()}}{subsubsection.6.14.2.3}{}}
\@writefile{toc}{\contentsline {subsubsection}{\numberline {6.14.2.4}getStartCode()}{40}{subsubsection.6.14.2.4}\protected@file@percent }
\@writefile{toc}{\contentsline {subsection}{\numberline {6.14.3}Member Data Documentation}{40}{subsection.6.14.3}\protected@file@percent }
\newlabel{classbixi_trip_1_1_past_trip_a844abd5c548ecaf4c7327168da69c40d}{{6.14.3}{40}{Member Data Documentation}{subsection.6.14.3}{}}
\gdef \LT@xxxix {\LT@entry 
    {3}{40.95145pt}\LT@entry 
    {3}{308.34053pt}}
\@writefile{toc}{\contentsline {subsubsection}{\numberline {6.14.3.1}duration}{41}{subsubsection.6.14.3.1}\protected@file@percent }
\newlabel{classbixi_trip_1_1_past_trip_ac3c333dcc3672f62a18d135906fd15fa}{{6.14.3.1}{41}{\texorpdfstring {duration}{duration}}{subsubsection.6.14.3.1}{}}
\@writefile{toc}{\contentsline {subsubsection}{\numberline {6.14.3.2}endCode}{41}{subsubsection.6.14.3.2}\protected@file@percent }
\newlabel{classbixi_trip_1_1_past_trip_a17b002c1ce3fddb33732a1fa92e37353}{{6.14.3.2}{41}{\texorpdfstring {endCode}{endCode}}{subsubsection.6.14.3.2}{}}
\@writefile{toc}{\contentsline {subsubsection}{\numberline {6.14.3.3}startCode}{41}{subsubsection.6.14.3.3}\protected@file@percent }
\@writefile{toc}{\contentsline {section}{\numberline {6.15}bixi\discretionary {\mbox  {\scriptsize  $\hookleftarrow  $}}{}{}Trip.\discretionary {\mbox  {\scriptsize  $\hookleftarrow  $}}{}{}Past\discretionary {\mbox  {\scriptsize  $\hookleftarrow  $}}{}{}Trip\discretionary {\mbox  {\scriptsize  $\hookleftarrow  $}}{}{}Parser Class Reference}{41}{section.6.15}\protected@file@percent }
\newlabel{classbixi_trip_1_1_past_trip_parser}{{6.15}{41}{bixi\+Trip.\+Past\+Trip\+Parser Class Reference}{section.6.15}{}}
\@writefile{toc}{\contentsline {subsection}{\numberline {6.15.1}Member Function Documentation}{41}{subsection.6.15.1}\protected@file@percent }
\newlabel{classbixi_trip_1_1_past_trip_parser_a3c18617b8856a72b2b46cd2144482d14}{{6.15.1}{41}{Member Function Documentation}{subsection.6.15.1}{}}
\@writefile{toc}{\contentsline {subsubsection}{\numberline {6.15.1.1}parse()}{41}{subsubsection.6.15.1.1}\protected@file@percent }
\gdef \LT@xl {\LT@entry 
    {3}{106.0654pt}\LT@entry 
    {3}{204.54558pt}}
\@writefile{toc}{\contentsline {section}{\numberline {6.16}bixi\discretionary {\mbox  {\scriptsize  $\hookleftarrow  $}}{}{}Trip.\discretionary {\mbox  {\scriptsize  $\hookleftarrow  $}}{}{}Past\discretionary {\mbox  {\scriptsize  $\hookleftarrow  $}}{}{}Trips Class Reference}{42}{section.6.16}\protected@file@percent }
\newlabel{classbixi_trip_1_1_past_trips}{{6.16}{42}{bixi\+Trip.\+Past\+Trips Class Reference}{section.6.16}{}}
\@writefile{toc}{\contentsline {subsection}{\numberline {6.16.1}Member Function Documentation}{43}{subsection.6.16.1}\protected@file@percent }
\newlabel{classbixi_trip_1_1_past_trips_a90b5e8146fc60c59a01b8ff2f994f215}{{6.16.1}{43}{Member Function Documentation}{subsection.6.16.1}{}}
\@writefile{toc}{\contentsline {subsubsection}{\numberline {6.16.1.1}addTrip()}{43}{subsubsection.6.16.1.1}\protected@file@percent }
\newlabel{classbixi_trip_1_1_past_trips_a7eacd703fb9e77a0494d0050908dac5c}{{6.16.1.1}{43}{\texorpdfstring {addTrip()}{addTrip()}}{subsubsection.6.16.1.1}{}}
\@writefile{toc}{\contentsline {subsubsection}{\numberline {6.16.1.2}getInstance()}{43}{subsubsection.6.16.1.2}\protected@file@percent }
\newlabel{classbixi_trip_1_1_past_trips_a14e981a400e52b0523759738a3c4e360}{{6.16.1.2}{43}{\texorpdfstring {getInstance()}{getInstance()}}{subsubsection.6.16.1.2}{}}
\@writefile{toc}{\contentsline {subsubsection}{\numberline {6.16.1.3}getNextPath()}{43}{subsubsection.6.16.1.3}\protected@file@percent }
\newlabel{classbixi_trip_1_1_past_trips_a40b8e0f788fcd55066594e986377dc0a}{{6.16.1.3}{43}{\texorpdfstring {getNextPath()}{getNextPath()}}{subsubsection.6.16.1.3}{}}
\@writefile{toc}{\contentsline {subsubsection}{\numberline {6.16.1.4}initialize()}{43}{subsubsection.6.16.1.4}\protected@file@percent }
\newlabel{classbixi_trip_1_1_past_trips_ad43b4892b0b0c296346651550c211793}{{6.16.1.4}{43}{\texorpdfstring {initialize()}{initialize()}}{subsubsection.6.16.1.4}{}}
\@writefile{toc}{\contentsline {subsubsection}{\numberline {6.16.1.5}sortPastTrips()}{44}{subsubsection.6.16.1.5}\protected@file@percent }
\@writefile{toc}{\contentsline {subsection}{\numberline {6.16.2}Member Data Documentation}{44}{subsection.6.16.2}\protected@file@percent }
\newlabel{classbixi_trip_1_1_past_trips_aed99f95a7abe24cf5aae0f78140738cb}{{6.16.2}{44}{Member Data Documentation}{subsection.6.16.2}{}}
\@writefile{toc}{\contentsline {subsubsection}{\numberline {6.16.2.1}i}{44}{subsubsection.6.16.2.1}\protected@file@percent }
\newlabel{classbixi_trip_1_1_past_trips_ae6f5d6ae39f854dfbdf9ce76f600f43b}{{6.16.2.1}{44}{\texorpdfstring {i}{i}}{subsubsection.6.16.2.1}{}}
\@writefile{toc}{\contentsline {subsubsection}{\numberline {6.16.2.2}instance}{44}{subsubsection.6.16.2.2}\protected@file@percent }
\newlabel{classbixi_trip_1_1_past_trips_aaeb6e17700a6a64aacff83fd70b3af88}{{6.16.2.2}{44}{\texorpdfstring {instance}{instance}}{subsubsection.6.16.2.2}{}}
\@writefile{toc}{\contentsline {subsubsection}{\numberline {6.16.2.3}isSorted}{44}{subsubsection.6.16.2.3}\protected@file@percent }
\newlabel{classbixi_trip_1_1_past_trips_a4f2422008cec22f023d663ac751d03c7}{{6.16.2.3}{44}{\texorpdfstring {isSorted}{isSorted}}{subsubsection.6.16.2.3}{}}
\@writefile{toc}{\contentsline {subsubsection}{\numberline {6.16.2.4}pastTrips}{44}{subsubsection.6.16.2.4}\protected@file@percent }
\@writefile{toc}{\contentsline {section}{\numberline {6.17}algs.\discretionary {\mbox  {\scriptsize  $\hookleftarrow  $}}{}{}Past\discretionary {\mbox  {\scriptsize  $\hookleftarrow  $}}{}{}Trips\discretionary {\mbox  {\scriptsize  $\hookleftarrow  $}}{}{}B\discretionary {\mbox  {\scriptsize  $\hookleftarrow  $}}{}{}U\discretionary {\mbox  {\scriptsize  $\hookleftarrow  $}}{}{}Merge\discretionary {\mbox  {\scriptsize  $\hookleftarrow  $}}{}{}Sort Class Reference}{44}{section.6.17}\protected@file@percent }
\newlabel{classalgs_1_1_past_trips_b_u_merge_sort}{{6.17}{44}{algs.\+Past\+Trips\+B\+U\+Merge\+Sort Class Reference}{section.6.17}{}}
\gdef \LT@xli {\LT@entry 
    {3}{19.29791pt}\LT@entry 
    {3}{159.96112pt}}
\@writefile{toc}{\contentsline {subsection}{\numberline {6.17.1}Detailed Description}{45}{subsection.6.17.1}\protected@file@percent }
\@writefile{toc}{\contentsline {subsection}{\numberline {6.17.2}Member Function Documentation}{45}{subsection.6.17.2}\protected@file@percent }
\newlabel{classalgs_1_1_past_trips_b_u_merge_sort_a02427fc27a28455c701f701e476be466}{{6.17.2}{45}{Member Function Documentation}{subsection.6.17.2}{}}
\@writefile{toc}{\contentsline {subsubsection}{\numberline {6.17.2.1}less()}{45}{subsubsection.6.17.2.1}\protected@file@percent }
\newlabel{classalgs_1_1_past_trips_b_u_merge_sort_a522fcae671bf5a95822aaa947c1cc2fb}{{6.17.2.1}{45}{\texorpdfstring {less()}{less()}}{table.6.41}{}}
\@writefile{toc}{\contentsline {subsubsection}{\numberline {6.17.2.2}merge()}{45}{subsubsection.6.17.2.2}\protected@file@percent }
\gdef \LT@xlii {\LT@entry 
    {3}{27.29875pt}\LT@entry 
    {3}{151.60025pt}}
\gdef \LT@xliii {\LT@entry 
    {3}{17.8039pt}\LT@entry 
    {3}{97.93411pt}}
\newlabel{classalgs_1_1_past_trips_b_u_merge_sort_aed7f96d8c737f9ab8cc64bc2decde44c}{{6.17.2.2}{47}{\texorpdfstring {merge()}{merge()}}{table.6.42}{}}
\@writefile{toc}{\contentsline {subsubsection}{\numberline {6.17.2.3}sort()}{47}{subsubsection.6.17.2.3}\protected@file@percent }
\@writefile{toc}{\contentsline {subsection}{\numberline {6.17.3}Member Data Documentation}{47}{subsection.6.17.3}\protected@file@percent }
\newlabel{classalgs_1_1_past_trips_b_u_merge_sort_a8bbf256918b601e67533d0c366368949}{{6.17.3}{47}{Member Data Documentation}{subsection.6.17.3}{}}
\@writefile{toc}{\contentsline {subsubsection}{\numberline {6.17.3.1}aux}{47}{subsubsection.6.17.3.1}\protected@file@percent }
\@writefile{toc}{\contentsline {section}{\numberline {6.18}bixi\discretionary {\mbox  {\scriptsize  $\hookleftarrow  $}}{}{}Trip.\discretionary {\mbox  {\scriptsize  $\hookleftarrow  $}}{}{}Path Class Reference}{47}{section.6.18}\protected@file@percent }
\newlabel{classbixi_trip_1_1_path}{{6.18}{47}{bixi\+Trip.\+Path Class Reference}{section.6.18}{}}
\gdef \LT@xliv {\LT@entry 
    {3}{30.43948pt}\LT@entry 
    {3}{153.81386pt}}
\@writefile{toc}{\contentsline {subsection}{\numberline {6.18.1}Constructor \& Destructor Documentation}{48}{subsection.6.18.1}\protected@file@percent }
\newlabel{classbixi_trip_1_1_path_a478af1ebc393303957d3067e337617a6}{{6.18.1}{48}{Constructor \& Destructor Documentation}{subsection.6.18.1}{}}
\@writefile{toc}{\contentsline {subsubsection}{\numberline {6.18.1.1}Path()}{48}{subsubsection.6.18.1.1}\protected@file@percent }
\@writefile{toc}{\contentsline {subsection}{\numberline {6.18.2}Member Function Documentation}{48}{subsection.6.18.2}\protected@file@percent }
\newlabel{classbixi_trip_1_1_path_a4f5902c42f0ba174bc1f693f10c28c74}{{6.18.2}{48}{Member Function Documentation}{subsection.6.18.2}{}}
\@writefile{toc}{\contentsline {subsubsection}{\numberline {6.18.2.1}addPastTrip()}{48}{subsubsection.6.18.2.1}\protected@file@percent }
\gdef \LT@xlv {\LT@entry 
    {3}{25.43558pt}\LT@entry 
    {3}{187.03209pt}}
\newlabel{classbixi_trip_1_1_path_a905cdc7ef904619922526ab62f79889f}{{6.18.2.1}{50}{\texorpdfstring {addPastTrip()}{addPastTrip()}}{table.6.45}{}}
\@writefile{toc}{\contentsline {subsubsection}{\numberline {6.18.2.2}getCount()}{50}{subsubsection.6.18.2.2}\protected@file@percent }
\newlabel{classbixi_trip_1_1_path_ac67135339c088f7aaa18a9633fba8bbb}{{6.18.2.2}{50}{\texorpdfstring {getCount()}{getCount()}}{subsubsection.6.18.2.2}{}}
\@writefile{toc}{\contentsline {subsubsection}{\numberline {6.18.2.3}getDuration()}{50}{subsubsection.6.18.2.3}\protected@file@percent }
\newlabel{classbixi_trip_1_1_path_a3f6ec895653f0d0a41417765e42a33d7}{{6.18.2.3}{50}{\texorpdfstring {getDuration()}{getDuration()}}{subsubsection.6.18.2.3}{}}
\@writefile{toc}{\contentsline {subsubsection}{\numberline {6.18.2.4}getEndIndex()}{50}{subsubsection.6.18.2.4}\protected@file@percent }
\newlabel{classbixi_trip_1_1_path_a9947f9362245f24fb84deb5f4095351e}{{6.18.2.4}{50}{\texorpdfstring {getEndIndex()}{getEndIndex()}}{subsubsection.6.18.2.4}{}}
\@writefile{toc}{\contentsline {subsubsection}{\numberline {6.18.2.5}getStartIndex()}{51}{subsubsection.6.18.2.5}\protected@file@percent }
\@writefile{toc}{\contentsline {subsection}{\numberline {6.18.3}Member Data Documentation}{51}{subsection.6.18.3}\protected@file@percent }
\newlabel{classbixi_trip_1_1_path_a2c87d07fade676e2ccfb4de8e3ffdf79}{{6.18.3}{51}{Member Data Documentation}{subsection.6.18.3}{}}
\@writefile{toc}{\contentsline {subsubsection}{\numberline {6.18.3.1}count}{51}{subsubsection.6.18.3.1}\protected@file@percent }
\newlabel{classbixi_trip_1_1_path_a29402f41cb9bbb3698d8d415a4bfe2df}{{6.18.3.1}{51}{\texorpdfstring {count}{count}}{subsubsection.6.18.3.1}{}}
\@writefile{toc}{\contentsline {subsubsection}{\numberline {6.18.3.2}duration}{51}{subsubsection.6.18.3.2}\protected@file@percent }
\newlabel{classbixi_trip_1_1_path_ad2f674a61366f4c64eccb8a1713ede5a}{{6.18.3.2}{51}{\texorpdfstring {duration}{duration}}{subsubsection.6.18.3.2}{}}
\@writefile{toc}{\contentsline {subsubsection}{\numberline {6.18.3.3}stations}{51}{subsubsection.6.18.3.3}\protected@file@percent }
\@writefile{toc}{\contentsline {section}{\numberline {6.19}bixi\discretionary {\mbox  {\scriptsize  $\hookleftarrow  $}}{}{}Trip.\discretionary {\mbox  {\scriptsize  $\hookleftarrow  $}}{}{}Paths Class Reference}{51}{section.6.19}\protected@file@percent }
\newlabel{classbixi_trip_1_1_paths}{{6.19}{51}{bixi\+Trip.\+Paths Class Reference}{section.6.19}{}}
\gdef \LT@xlvi {\LT@entry 
    {3}{30.3136pt}\LT@entry 
    {3}{109.60667pt}}
\@writefile{toc}{\contentsline {subsection}{\numberline {6.19.1}Constructor \& Destructor Documentation}{52}{subsection.6.19.1}\protected@file@percent }
\newlabel{classbixi_trip_1_1_paths_ab3524c84c92b0793d785b7e79ee5618d}{{6.19.1}{52}{Constructor \& Destructor Documentation}{subsection.6.19.1}{}}
\@writefile{toc}{\contentsline {subsubsection}{\numberline {6.19.1.1}Paths()}{52}{subsubsection.6.19.1.1}\protected@file@percent }
\@writefile{toc}{\contentsline {subsection}{\numberline {6.19.2}Member Function Documentation}{52}{subsection.6.19.2}\protected@file@percent }
\newlabel{classbixi_trip_1_1_paths_aafd33bbe2d65a520ab4c4d041a291886}{{6.19.2}{52}{Member Function Documentation}{subsection.6.19.2}{}}
\@writefile{toc}{\contentsline {subsubsection}{\numberline {6.19.2.1}addPath()}{52}{subsubsection.6.19.2.1}\protected@file@percent }
\gdef \LT@xlvii {\LT@entry 
    {3}{52.17413pt}\LT@entry 
    {3}{176.98814pt}}
\newlabel{classbixi_trip_1_1_paths_a9361be0a80cb167432c3e8b39b425f56}{{6.19.2.1}{53}{\texorpdfstring {addPath()}{addPath()}}{table.6.46}{}}
\@writefile{toc}{\contentsline {subsubsection}{\numberline {6.19.2.2}getGraph()}{53}{subsubsection.6.19.2.2}\protected@file@percent }
\newlabel{classbixi_trip_1_1_paths_a060bc4b05f2260bf5bcdee1b53f9548d}{{6.19.2.2}{53}{\texorpdfstring {getGraph()}{getGraph()}}{subsubsection.6.19.2.2}{}}
\@writefile{toc}{\contentsline {subsubsection}{\numberline {6.19.2.3}getInstance()}{53}{subsubsection.6.19.2.3}\protected@file@percent }
\newlabel{classbixi_trip_1_1_paths_ac27bb3c256d9afe93ac862520c86f15c}{{6.19.2.3}{53}{\texorpdfstring {getInstance()}{getInstance()}}{subsubsection.6.19.2.3}{}}
\@writefile{toc}{\contentsline {subsubsection}{\numberline {6.19.2.4}getPath()}{53}{subsubsection.6.19.2.4}\protected@file@percent }
\newlabel{classbixi_trip_1_1_paths_a4192647388f5993a8c764443617fdd77}{{6.19.2.4}{53}{\texorpdfstring {getPath()}{getPath()}}{table.6.47}{}}
\@writefile{toc}{\contentsline {subsubsection}{\numberline {6.19.2.5}importPastTrips()}{53}{subsubsection.6.19.2.5}\protected@file@percent }
\@writefile{toc}{\contentsline {subsection}{\numberline {6.19.3}Member Data Documentation}{54}{subsection.6.19.3}\protected@file@percent }
\newlabel{classbixi_trip_1_1_paths_a841e63de2d855b0509df61873f300149}{{6.19.3}{54}{Member Data Documentation}{subsection.6.19.3}{}}
\@writefile{toc}{\contentsline {subsubsection}{\numberline {6.19.3.1}graph}{54}{subsubsection.6.19.3.1}\protected@file@percent }
\newlabel{classbixi_trip_1_1_paths_aca83d7ea9171896811da6905c47bfecc}{{6.19.3.1}{54}{\texorpdfstring {graph}{graph}}{subsubsection.6.19.3.1}{}}
\@writefile{toc}{\contentsline {subsubsection}{\numberline {6.19.3.2}instance}{54}{subsubsection.6.19.3.2}\protected@file@percent }
\newlabel{classbixi_trip_1_1_paths_adf073d3e9badf4b172a0f50105875e2e}{{6.19.3.2}{54}{\texorpdfstring {instance}{instance}}{subsubsection.6.19.3.2}{}}
\@writefile{toc}{\contentsline {subsubsection}{\numberline {6.19.3.3}stations}{54}{subsubsection.6.19.3.3}\protected@file@percent }
\@writefile{toc}{\contentsline {section}{\numberline {6.20}algs.\discretionary {\mbox  {\scriptsize  $\hookleftarrow  $}}{}{}Queue$<$ Item $>$ Class Template Reference}{54}{section.6.20}\protected@file@percent }
\newlabel{classalgs_1_1_queue}{{6.20}{54}{algs.\+Queue$<$ Item $>$ Class Template Reference}{section.6.20}{}}
\gdef \LT@xlviii {\LT@entry 
    {3}{117.34213pt}\LT@entry 
    {3}{80.42955pt}}
\gdef \LT@xlix {\LT@entry 
    {3}{29.80064pt}\LT@entry 
    {3}{71.93355pt}}
\@writefile{toc}{\contentsline {subsection}{\numberline {6.20.1}Member Function Documentation}{55}{subsection.6.20.1}\protected@file@percent }
\newlabel{classalgs_1_1_queue_a11d0f9da347200e3d9682d33fee36d38}{{6.20.1}{55}{Member Function Documentation}{subsection.6.20.1}{}}
\@writefile{toc}{\contentsline {subsubsection}{\numberline {6.20.1.1}dequeue()}{55}{subsubsection.6.20.1.1}\protected@file@percent }
\newlabel{classalgs_1_1_queue_a42b898a3bc36cd8820e9db974310185f}{{6.20.1.1}{55}{\texorpdfstring {dequeue()}{dequeue()}}{table.6.48}{}}
\@writefile{toc}{\contentsline {subsubsection}{\numberline {6.20.1.2}enqueue()}{55}{subsubsection.6.20.1.2}\protected@file@percent }
\newlabel{classalgs_1_1_queue_a3d13f086a0eceee543d62bbddacbd97d}{{6.20.1.2}{55}{\texorpdfstring {enqueue()}{enqueue()}}{table.6.49}{}}
\@writefile{toc}{\contentsline {subsubsection}{\numberline {6.20.1.3}isEmpty()}{56}{subsubsection.6.20.1.3}\protected@file@percent }
\newlabel{classalgs_1_1_queue_af36e800d293638f05bfdc21b62bf00c5}{{6.20.1.3}{56}{\texorpdfstring {isEmpty()}{isEmpty()}}{subsubsection.6.20.1.3}{}}
\@writefile{toc}{\contentsline {subsubsection}{\numberline {6.20.1.4}iterator()}{56}{subsubsection.6.20.1.4}\protected@file@percent }
\newlabel{classalgs_1_1_queue_a7cf7cf353df208ffb4ab383a705f9d4c}{{6.20.1.4}{56}{\texorpdfstring {iterator()}{iterator()}}{subsubsection.6.20.1.4}{}}
\@writefile{toc}{\contentsline {subsubsection}{\numberline {6.20.1.5}size()}{56}{subsubsection.6.20.1.5}\protected@file@percent }
\@writefile{toc}{\contentsline {subsection}{\numberline {6.20.2}Member Data Documentation}{56}{subsection.6.20.2}\protected@file@percent }
\newlabel{classalgs_1_1_queue_a6adfb49cff14cc769772334e041ca562}{{6.20.2}{56}{Member Data Documentation}{subsection.6.20.2}{}}
\@writefile{toc}{\contentsline {subsubsection}{\numberline {6.20.2.1}first}{56}{subsubsection.6.20.2.1}\protected@file@percent }
\newlabel{classalgs_1_1_queue_a2ccffd9825b9a62bc43257f053326853}{{6.20.2.1}{56}{\texorpdfstring {first}{first}}{subsubsection.6.20.2.1}{}}
\@writefile{toc}{\contentsline {subsubsection}{\numberline {6.20.2.2}last}{56}{subsubsection.6.20.2.2}\protected@file@percent }
\newlabel{classalgs_1_1_queue_a3a95a4f2b2616557c1a3520a374e53be}{{6.20.2.2}{56}{\texorpdfstring {last}{last}}{subsubsection.6.20.2.2}{}}
\@writefile{toc}{\contentsline {subsubsection}{\numberline {6.20.2.3}n}{57}{subsubsection.6.20.2.3}\protected@file@percent }
\@writefile{toc}{\contentsline {section}{\numberline {6.21}algs.\discretionary {\mbox  {\scriptsize  $\hookleftarrow  $}}{}{}SP Class Reference}{57}{section.6.21}\protected@file@percent }
\newlabel{classalgs_1_1_s_p}{{6.21}{57}{algs.\+SP Class Reference}{section.6.21}{}}
\@writefile{toc}{\contentsline {subsection}{\numberline {6.21.1}Detailed Description}{57}{subsection.6.21.1}\protected@file@percent }
\@writefile{toc}{\contentsline {subsection}{\numberline {6.21.2}Constructor \& Destructor Documentation}{57}{subsection.6.21.2}\protected@file@percent }
\newlabel{classalgs_1_1_s_p_ada8bfb4b45e97758d7b1a81df494c7e1}{{6.21.2}{57}{Constructor \& Destructor Documentation}{subsection.6.21.2}{}}
\@writefile{toc}{\contentsline {subsubsection}{\numberline {6.21.2.1}SP()}{57}{subsubsection.6.21.2.1}\protected@file@percent }
\gdef \LT@l {\LT@entry 
    {3}{19.80185pt}\LT@entry 
    {3}{113.93547pt}}
\gdef \LT@li {\LT@entry 
    {3}{17.29996pt}\LT@entry 
    {3}{106.952pt}}
\gdef \LT@lii {\LT@entry 
    {3}{17.29996pt}\LT@entry 
    {3}{136.78621pt}}
\@writefile{toc}{\contentsline {subsection}{\numberline {6.21.3}Member Function Documentation}{58}{subsection.6.21.3}\protected@file@percent }
\newlabel{classalgs_1_1_s_p_ad7ee15dd817aca4a6276daa29de72f63}{{6.21.3}{58}{Member Function Documentation}{subsection.6.21.3}{}}
\@writefile{toc}{\contentsline {subsubsection}{\numberline {6.21.3.1}distTo()}{58}{subsubsection.6.21.3.1}\protected@file@percent }
\newlabel{classalgs_1_1_s_p_aa57b084c72ebbae7b525253af2a2eb61}{{6.21.3.1}{58}{\texorpdfstring {distTo()}{distTo()}}{table.6.51}{}}
\@writefile{toc}{\contentsline {subsubsection}{\numberline {6.21.3.2}hasPathTo()}{58}{subsubsection.6.21.3.2}\protected@file@percent }
\newlabel{classalgs_1_1_s_p_af69d53ec5e2cc0e84c450a15c4ccb68d}{{6.21.3.2}{58}{\texorpdfstring {hasPathTo()}{hasPathTo()}}{table.6.52}{}}
\@writefile{toc}{\contentsline {subsubsection}{\numberline {6.21.3.3}pathTo()}{58}{subsubsection.6.21.3.3}\protected@file@percent }
\gdef \LT@liii {\LT@entry 
    {3}{17.29996pt}\LT@entry 
    {3}{90.9502pt}}
\gdef \LT@liv {\LT@entry 
    {3}{19.80185pt}\LT@entry 
    {3}{78.83652pt}}
\newlabel{classalgs_1_1_s_p_a44e2e98069381ef97e6943c8c2a1144c}{{6.21.3.3}{60}{\texorpdfstring {pathTo()}{pathTo()}}{table.6.53}{}}
\@writefile{toc}{\contentsline {subsubsection}{\numberline {6.21.3.4}relax()}{60}{subsubsection.6.21.3.4}\protected@file@percent }
\@writefile{toc}{\contentsline {subsection}{\numberline {6.21.4}Member Data Documentation}{60}{subsection.6.21.4}\protected@file@percent }
\newlabel{classalgs_1_1_s_p_a7e3566f8264176089e80ba6c943a3a40}{{6.21.4}{60}{Member Data Documentation}{subsection.6.21.4}{}}
\@writefile{toc}{\contentsline {subsubsection}{\numberline {6.21.4.1}BIKE\_SWITCH\_PENALTY}{60}{subsubsection.6.21.4.1}\protected@file@percent }
\newlabel{classalgs_1_1_s_p_affcc8e92e5fbdc85c8eecbcfb38e86da}{{6.21.4.1}{60}{\texorpdfstring {BIKE\_SWITCH\_PENALTY}{BIKE\_SWITCH\_PENALTY}}{subsubsection.6.21.4.1}{}}
\@writefile{toc}{\contentsline {subsubsection}{\numberline {6.21.4.2}distTo}{60}{subsubsection.6.21.4.2}\protected@file@percent }
\newlabel{classalgs_1_1_s_p_ab7f2ce690459a2c56fd9bb7501131188}{{6.21.4.2}{60}{\texorpdfstring {distTo}{distTo}}{subsubsection.6.21.4.2}{}}
\@writefile{toc}{\contentsline {subsubsection}{\numberline {6.21.4.3}PATH\_COUNT\_CUTOFF}{60}{subsubsection.6.21.4.3}\protected@file@percent }
\newlabel{classalgs_1_1_s_p_afd5b46c7304a263d9036a19dec69c6f6}{{6.21.4.3}{60}{\texorpdfstring {PATH\_COUNT\_CUTOFF}{PATH\_COUNT\_CUTOFF}}{subsubsection.6.21.4.3}{}}
\@writefile{toc}{\contentsline {subsubsection}{\numberline {6.21.4.4}PATH\_LEN\_MAX}{61}{subsubsection.6.21.4.4}\protected@file@percent }
\newlabel{classalgs_1_1_s_p_ae3b7d6567b8db45d622211b56a60d554}{{6.21.4.4}{61}{\texorpdfstring {PATH\_LEN\_MAX}{PATH\_LEN\_MAX}}{subsubsection.6.21.4.4}{}}
\@writefile{toc}{\contentsline {subsubsection}{\numberline {6.21.4.5}PATH\_LEN\_MIN}{61}{subsubsection.6.21.4.5}\protected@file@percent }
\newlabel{classalgs_1_1_s_p_aa2bbadcbefa194e879cb3fa5cb896051}{{6.21.4.5}{61}{\texorpdfstring {PATH\_LEN\_MIN}{PATH\_LEN\_MIN}}{subsubsection.6.21.4.5}{}}
\@writefile{toc}{\contentsline {subsubsection}{\numberline {6.21.4.6}pathTo}{61}{subsubsection.6.21.4.6}\protected@file@percent }
\newlabel{classalgs_1_1_s_p_a1aa97b8752da1c3a0ad94b49ac800446}{{6.21.4.6}{61}{\texorpdfstring {pathTo}{pathTo}}{subsubsection.6.21.4.6}{}}
\@writefile{toc}{\contentsline {subsubsection}{\numberline {6.21.4.7}pq}{61}{subsubsection.6.21.4.7}\protected@file@percent }
\@writefile{toc}{\contentsline {section}{\numberline {6.22}algs.\discretionary {\mbox  {\scriptsize  $\hookleftarrow  $}}{}{}Stack$<$ Item $>$ Class Template Reference}{61}{section.6.22}\protected@file@percent }
\newlabel{classalgs_1_1_stack}{{6.22}{61}{algs.\+Stack$<$ Item $>$ Class Template Reference}{section.6.22}{}}
\gdef \LT@lv {\LT@entry 
    {3}{45.86018pt}\LT@entry 
    {3}{77.74757pt}}
\@writefile{toc}{\contentsline {subsection}{\numberline {6.22.1}Detailed Description}{62}{subsection.6.22.1}\protected@file@percent }
\@writefile{toc}{\contentsline {subsection}{\numberline {6.22.2}Member Function Documentation}{62}{subsection.6.22.2}\protected@file@percent }
\newlabel{classalgs_1_1_stack_a256a2c938a7c5f913f264aab01abc598}{{6.22.2}{62}{Member Function Documentation}{subsection.6.22.2}{}}
\@writefile{toc}{\contentsline {subsubsection}{\numberline {6.22.2.1}isEmpty()}{62}{subsubsection.6.22.2.1}\protected@file@percent }
\newlabel{classalgs_1_1_stack_ab67999988de054db50eca30effd48dc4}{{6.22.2.1}{62}{\texorpdfstring {isEmpty()}{isEmpty()}}{subsubsection.6.22.2.1}{}}
\@writefile{toc}{\contentsline {subsubsection}{\numberline {6.22.2.2}iterator()}{62}{subsubsection.6.22.2.2}\protected@file@percent }
\newlabel{classalgs_1_1_stack_aa4b76aafd9c9a480a4af8cfa37f6af94}{{6.22.2.2}{62}{\texorpdfstring {iterator()}{iterator()}}{subsubsection.6.22.2.2}{}}
\gdef \LT@lvi {\LT@entry 
    {3}{29.80064pt}\LT@entry 
    {3}{113.27873pt}}
\@writefile{toc}{\contentsline {subsubsection}{\numberline {6.22.2.3}pop()}{63}{subsubsection.6.22.2.3}\protected@file@percent }
\newlabel{classalgs_1_1_stack_acf304d63b042c63d1b4ec8d1b1e20cac}{{6.22.2.3}{63}{\texorpdfstring {pop()}{pop()}}{subsubsection.6.22.2.3}{}}
\@writefile{toc}{\contentsline {subsubsection}{\numberline {6.22.2.4}push()}{63}{subsubsection.6.22.2.4}\protected@file@percent }
\newlabel{classalgs_1_1_stack_acbd7cc0cb6bfed070191221dea52463c}{{6.22.2.4}{63}{\texorpdfstring {push()}{push()}}{table.6.56}{}}
\@writefile{toc}{\contentsline {subsubsection}{\numberline {6.22.2.5}size()}{63}{subsubsection.6.22.2.5}\protected@file@percent }
\@writefile{toc}{\contentsline {subsection}{\numberline {6.22.3}Member Data Documentation}{63}{subsection.6.22.3}\protected@file@percent }
\newlabel{classalgs_1_1_stack_acfd2cbac52e45642c313f5991bd4fd78}{{6.22.3}{63}{Member Data Documentation}{subsection.6.22.3}{}}
\@writefile{toc}{\contentsline {subsubsection}{\numberline {6.22.3.1}first}{63}{subsubsection.6.22.3.1}\protected@file@percent }
\newlabel{classalgs_1_1_stack_a119009ca66de5e3ad3e8901f8c7a2271}{{6.22.3.1}{63}{\texorpdfstring {first}{first}}{subsubsection.6.22.3.1}{}}
\@writefile{toc}{\contentsline {subsubsection}{\numberline {6.22.3.2}n}{64}{subsubsection.6.22.3.2}\protected@file@percent }
\@writefile{toc}{\contentsline {section}{\numberline {6.23}bixi\discretionary {\mbox  {\scriptsize  $\hookleftarrow  $}}{}{}Trip.\discretionary {\mbox  {\scriptsize  $\hookleftarrow  $}}{}{}Station Class Reference}{64}{section.6.23}\protected@file@percent }
\newlabel{classbixi_trip_1_1_station}{{6.23}{64}{bixi\+Trip.\+Station Class Reference}{section.6.23}{}}
\@writefile{toc}{\contentsline {subsection}{\numberline {6.23.1}Constructor \& Destructor Documentation}{64}{subsection.6.23.1}\protected@file@percent }
\newlabel{classbixi_trip_1_1_station_aeec81504f0df21352a2eb0a1df35d82a}{{6.23.1}{64}{Constructor \& Destructor Documentation}{subsection.6.23.1}{}}
\@writefile{toc}{\contentsline {subsubsection}{\numberline {6.23.1.1}Station()}{64}{subsubsection.6.23.1.1}\protected@file@percent }
\gdef \LT@lvii {\LT@entry 
    {3}{44.81248pt}\LT@entry 
    {3}{209.99963pt}}
\gdef \LT@lviii {\LT@entry 
    {3}{27.81158pt}\LT@entry 
    {3}{215.50735pt}}
\@writefile{toc}{\contentsline {subsection}{\numberline {6.23.2}Member Function Documentation}{65}{subsection.6.23.2}\protected@file@percent }
\newlabel{classbixi_trip_1_1_station_a8a7b49669ae5411deaea60357aa530f3}{{6.23.2}{65}{Member Function Documentation}{subsection.6.23.2}{}}
\@writefile{toc}{\contentsline {subsubsection}{\numberline {6.23.2.1}compareTo()}{65}{subsubsection.6.23.2.1}\protected@file@percent }
\newlabel{classbixi_trip_1_1_station_aa384beb49ffc6c32621b6c09f857b418}{{6.23.2.1}{65}{\texorpdfstring {compareTo()}{compareTo()}}{table.6.58}{}}
\@writefile{toc}{\contentsline {subsubsection}{\numberline {6.23.2.2}getCode()}{65}{subsubsection.6.23.2.2}\protected@file@percent }
\newlabel{classbixi_trip_1_1_station_aa53876b1b5273ad90f37eeff8a08feee}{{6.23.2.2}{65}{\texorpdfstring {getCode()}{getCode()}}{subsubsection.6.23.2.2}{}}
\@writefile{toc}{\contentsline {subsubsection}{\numberline {6.23.2.3}getCoords()}{65}{subsubsection.6.23.2.3}\protected@file@percent }
\newlabel{classbixi_trip_1_1_station_a56505f62bb93e86f1ff2c28c1088c247}{{6.23.2.3}{65}{\texorpdfstring {getCoords()}{getCoords()}}{subsubsection.6.23.2.3}{}}
\@writefile{toc}{\contentsline {subsubsection}{\numberline {6.23.2.4}getName()}{66}{subsubsection.6.23.2.4}\protected@file@percent }
\@writefile{toc}{\contentsline {subsection}{\numberline {6.23.3}Member Data Documentation}{66}{subsection.6.23.3}\protected@file@percent }
\newlabel{classbixi_trip_1_1_station_ae377cdacc231604a2138285dac04f553}{{6.23.3}{66}{Member Data Documentation}{subsection.6.23.3}{}}
\@writefile{toc}{\contentsline {subsubsection}{\numberline {6.23.3.1}code}{66}{subsubsection.6.23.3.1}\protected@file@percent }
\newlabel{classbixi_trip_1_1_station_a2ef139fc6669b954c41b9552ec4a4a87}{{6.23.3.1}{66}{\texorpdfstring {code}{code}}{subsubsection.6.23.3.1}{}}
\@writefile{toc}{\contentsline {subsubsection}{\numberline {6.23.3.2}coords}{66}{subsubsection.6.23.3.2}\protected@file@percent }
\newlabel{classbixi_trip_1_1_station_a0c17212ae80f456eca359d32e938c0e7}{{6.23.3.2}{66}{\texorpdfstring {coords}{coords}}{subsubsection.6.23.3.2}{}}
\@writefile{toc}{\contentsline {subsubsection}{\numberline {6.23.3.3}name}{66}{subsubsection.6.23.3.3}\protected@file@percent }
\@writefile{toc}{\contentsline {section}{\numberline {6.24}bixi\discretionary {\mbox  {\scriptsize  $\hookleftarrow  $}}{}{}Trip.\discretionary {\mbox  {\scriptsize  $\hookleftarrow  $}}{}{}Stations Class Reference}{66}{section.6.24}\protected@file@percent }
\newlabel{classbixi_trip_1_1_stations}{{6.24}{66}{bixi\+Trip.\+Stations Class Reference}{section.6.24}{}}
\gdef \LT@lix {\LT@entry 
    {3}{39.31342pt}\LT@entry 
    {3}{227.40489pt}}
\gdef \LT@lx {\LT@entry 
    {3}{32.31168pt}\LT@entry 
    {3}{218.7562pt}}
\@writefile{toc}{\contentsline {subsection}{\numberline {6.24.1}Member Function Documentation}{67}{subsection.6.24.1}\protected@file@percent }
\newlabel{classbixi_trip_1_1_stations_a56e3c61189e3c3e0501f71b33820f100}{{6.24.1}{67}{Member Function Documentation}{subsection.6.24.1}{}}
\@writefile{toc}{\contentsline {subsubsection}{\numberline {6.24.1.1}addStation()}{67}{subsubsection.6.24.1.1}\protected@file@percent }
\newlabel{classbixi_trip_1_1_stations_ab019160151fe4dd4c9339b9c1a9ec7a5}{{6.24.1.1}{67}{\texorpdfstring {addStation()}{addStation()}}{table.6.59}{}}
\@writefile{toc}{\contentsline {subsubsection}{\numberline {6.24.1.2}getIndex()}{67}{subsubsection.6.24.1.2}\protected@file@percent }
\gdef \LT@lxi {\LT@entry 
    {3}{32.31168pt}\LT@entry 
    {3}{218.7562pt}}
\gdef \LT@lxii {\LT@entry 
    {3}{149.7325pt}\LT@entry 
    {3}{193.22383pt}}
\newlabel{classbixi_trip_1_1_stations_aafe59b6b59a75c2823709f46a3650e9c}{{6.24.1.2}{68}{\texorpdfstring {getIndex()}{getIndex()}}{table.6.60}{}}
\@writefile{toc}{\contentsline {subsubsection}{\numberline {6.24.1.3}getInstance()}{68}{subsubsection.6.24.1.3}\protected@file@percent }
\newlabel{classbixi_trip_1_1_stations_a6e6cb542e06719d3f6904caefbba87f2}{{6.24.1.3}{68}{\texorpdfstring {getInstance()}{getInstance()}}{subsubsection.6.24.1.3}{}}
\@writefile{toc}{\contentsline {subsubsection}{\numberline {6.24.1.4}getStationByCode()}{68}{subsubsection.6.24.1.4}\protected@file@percent }
\newlabel{classbixi_trip_1_1_stations_a921c3e463bfe01421dcad5cdfdbb0abb}{{6.24.1.4}{68}{\texorpdfstring {getStationByCode()}{getStationByCode()}}{table.6.62}{}}
\@writefile{toc}{\contentsline {subsubsection}{\numberline {6.24.1.5}getStationByIndex()}{68}{subsubsection.6.24.1.5}\protected@file@percent }
\gdef \LT@lxiii {\LT@entry 
    {3}{34.03969pt}\LT@entry 
    {3}{296.28963pt}}
\gdef \LT@lxiv {\LT@entry 
    {3}{52.31828pt}\LT@entry 
    {3}{113.13467pt}}
\newlabel{classbixi_trip_1_1_stations_a79718d59a4fec5233d0e2b20fce94da2}{{6.24.1.5}{69}{\texorpdfstring {getStationByIndex()}{getStationByIndex()}}{table.6.64}{}}
\@writefile{toc}{\contentsline {subsubsection}{\numberline {6.24.1.6}getStations()}{69}{subsubsection.6.24.1.6}\protected@file@percent }
\newlabel{classbixi_trip_1_1_stations_afdd10a0e3da5689a0ccb249381f4a484}{{6.24.1.6}{69}{\texorpdfstring {getStations()}{getStations()}}{subsubsection.6.24.1.6}{}}
\@writefile{toc}{\contentsline {subsubsection}{\numberline {6.24.1.7}size()}{69}{subsubsection.6.24.1.7}\protected@file@percent }
\newlabel{classbixi_trip_1_1_stations_a0821c971482c6ced9d6b429fdae05040}{{6.24.1.7}{69}{\texorpdfstring {size()}{size()}}{subsubsection.6.24.1.7}{}}
\@writefile{toc}{\contentsline {subsubsection}{\numberline {6.24.1.8}sortStations()}{69}{subsubsection.6.24.1.8}\protected@file@percent }
\@writefile{toc}{\contentsline {subsection}{\numberline {6.24.2}Member Data Documentation}{69}{subsection.6.24.2}\protected@file@percent }
\newlabel{classbixi_trip_1_1_stations_a43d11a78707849c0198aead9ec257c40}{{6.24.2}{69}{Member Data Documentation}{subsection.6.24.2}{}}
\@writefile{toc}{\contentsline {subsubsection}{\numberline {6.24.2.1}instance}{70}{subsubsection.6.24.2.1}\protected@file@percent }
\newlabel{classbixi_trip_1_1_stations_ace528cd86f5061599c6b6622ad7d0a75}{{6.24.2.1}{70}{\texorpdfstring {instance}{instance}}{subsubsection.6.24.2.1}{}}
\@writefile{toc}{\contentsline {subsubsection}{\numberline {6.24.2.2}isSorted}{70}{subsubsection.6.24.2.2}\protected@file@percent }
\newlabel{classbixi_trip_1_1_stations_a032e96d455ed24835a1ca7af45457058}{{6.24.2.2}{70}{\texorpdfstring {isSorted}{isSorted}}{subsubsection.6.24.2.2}{}}
\@writefile{toc}{\contentsline {subsubsection}{\numberline {6.24.2.3}stations}{70}{subsubsection.6.24.2.3}\protected@file@percent }
\@writefile{toc}{\contentsline {section}{\numberline {6.25}algs.\discretionary {\mbox  {\scriptsize  $\hookleftarrow  $}}{}{}Stations\discretionary {\mbox  {\scriptsize  $\hookleftarrow  $}}{}{}Mergesort Class Reference}{70}{section.6.25}\protected@file@percent }
\newlabel{classalgs_1_1_stations_mergesort}{{6.25}{70}{algs.\+Stations\+Mergesort Class Reference}{section.6.25}{}}
\@writefile{toc}{\contentsline {subsection}{\numberline {6.25.1}Detailed Description}{70}{subsection.6.25.1}\protected@file@percent }
\@writefile{toc}{\contentsline {subsection}{\numberline {6.25.2}Member Function Documentation}{71}{subsection.6.25.2}\protected@file@percent }
\newlabel{classalgs_1_1_stations_mergesort_a45adfb4665a71012923d48f069fc7805}{{6.25.2}{71}{Member Function Documentation}{subsection.6.25.2}{}}
\@writefile{toc}{\contentsline {subsubsection}{\numberline {6.25.2.1}less()}{71}{subsubsection.6.25.2.1}\protected@file@percent }
\gdef \LT@lxv {\LT@entry 
    {3}{19.29791pt}\LT@entry 
    {3}{96.66533pt}}
\gdef \LT@lxvi {\LT@entry 
    {3}{27.29875pt}\LT@entry 
    {3}{139.14807pt}}
\gdef \LT@lxvii {\LT@entry 
    {3}{27.29875pt}\LT@entry 
    {3}{139.14807pt}}
\newlabel{classalgs_1_1_stations_mergesort_a382bc80166eb59e33e3c0c39376a6e8b}{{6.25.2.1}{72}{\texorpdfstring {less()}{less()}}{table.6.65}{}}
\@writefile{toc}{\contentsline {subsubsection}{\numberline {6.25.2.2}merge()}{72}{subsubsection.6.25.2.2}\protected@file@percent }
\newlabel{classalgs_1_1_stations_mergesort_ae44718dcc44ee567799c5009f8949c0c}{{6.25.2.2}{72}{\texorpdfstring {merge()}{merge()}}{table.6.66}{}}
\@writefile{toc}{\contentsline {subsubsection}{\numberline {6.25.2.3}mergeByName()}{72}{subsubsection.6.25.2.3}\protected@file@percent }
\gdef \LT@lxviii {\LT@entry 
    {3}{17.8039pt}\LT@entry 
    {3}{123.59247pt}}
\gdef \LT@lxix {\LT@entry 
    {3}{17.8039pt}\LT@entry 
    {3}{127.57036pt}}
\newlabel{classalgs_1_1_stations_mergesort_a41ffa59cfffb47c854042be6f8d3b341}{{6.25.2.3}{73}{\texorpdfstring {mergeByName()}{mergeByName()}}{table.6.67}{}}
\@writefile{toc}{\contentsline {subsubsection}{\numberline {6.25.2.4}sort()}{73}{subsubsection.6.25.2.4}\protected@file@percent }
\newlabel{classalgs_1_1_stations_mergesort_a38201f5cbaf960776b7ddafb7370f0ca}{{6.25.2.4}{73}{\texorpdfstring {sort()}{sort()}}{table.6.68}{}}
\@writefile{toc}{\contentsline {subsubsection}{\numberline {6.25.2.5}sortByName()}{73}{subsubsection.6.25.2.5}\protected@file@percent }
\@writefile{toc}{\contentsline {subsection}{\numberline {6.25.3}Member Data Documentation}{73}{subsection.6.25.3}\protected@file@percent }
\newlabel{classalgs_1_1_stations_mergesort_acc3be13c53cc563df288777534245d81}{{6.25.3}{73}{Member Data Documentation}{subsection.6.25.3}{}}
\@writefile{toc}{\contentsline {subsubsection}{\numberline {6.25.3.1}aux}{73}{subsubsection.6.25.3.1}\protected@file@percent }
\gdef \LT@lxx {\LT@entry 
    {3}{40.95145pt}\LT@entry 
    {3}{12.4pt}}
\gdef \LT@lxxi {\LT@entry 
    {3}{106.0654pt}\LT@entry 
    {3}{181.26299pt}}
\@writefile{toc}{\contentsline {section}{\numberline {6.26}bixi\discretionary {\mbox  {\scriptsize  $\hookleftarrow  $}}{}{}Trip.\discretionary {\mbox  {\scriptsize  $\hookleftarrow  $}}{}{}Stations\discretionary {\mbox  {\scriptsize  $\hookleftarrow  $}}{}{}Parser Class Reference}{74}{section.6.26}\protected@file@percent }
\newlabel{classbixi_trip_1_1_stations_parser}{{6.26}{74}{bixi\+Trip.\+Stations\+Parser Class Reference}{section.6.26}{}}
\@writefile{toc}{\contentsline {subsection}{\numberline {6.26.1}Member Function Documentation}{74}{subsection.6.26.1}\protected@file@percent }
\newlabel{classbixi_trip_1_1_stations_parser_ac7d8442703fbc8dff5cfea6255495e2a}{{6.26.1}{74}{Member Function Documentation}{subsection.6.26.1}{}}
\@writefile{toc}{\contentsline {subsubsection}{\numberline {6.26.1.1}parse()}{74}{subsubsection.6.26.1.1}\protected@file@percent }
\@writefile{toc}{\contentsline {section}{\numberline {6.27}bixi\discretionary {\mbox  {\scriptsize  $\hookleftarrow  $}}{}{}Trip.\discretionary {\mbox  {\scriptsize  $\hookleftarrow  $}}{}{}Test\discretionary {\mbox  {\scriptsize  $\hookleftarrow  $}}{}{}UI Class Reference}{74}{section.6.27}\protected@file@percent }
\newlabel{classbixi_trip_1_1_test_u_i}{{6.27}{74}{bixi\+Trip.\+Test\+UI Class Reference}{section.6.27}{}}
\gdef \LT@lxxii {\LT@entry 
    {3}{44.31732pt}\LT@entry 
    {3}{195.70816pt}}
\@writefile{toc}{\contentsline {subsection}{\numberline {6.27.1}Constructor \& Destructor Documentation}{75}{subsection.6.27.1}\protected@file@percent }
\newlabel{classbixi_trip_1_1_test_u_i_aeb56d884f9c025d7a6c7209c70a6e62a}{{6.27.1}{75}{Constructor \& Destructor Documentation}{subsection.6.27.1}{}}
\@writefile{toc}{\contentsline {subsubsection}{\numberline {6.27.1.1}TestUI()}{75}{subsubsection.6.27.1.1}\protected@file@percent }
\@writefile{toc}{\contentsline {subsection}{\numberline {6.27.2}Member Function Documentation}{75}{subsection.6.27.2}\protected@file@percent }
\newlabel{classbixi_trip_1_1_test_u_i_a26a514dd72bde585c30fef8ec4c5d6b6}{{6.27.2}{75}{Member Function Documentation}{subsection.6.27.2}{}}
\@writefile{toc}{\contentsline {subsubsection}{\numberline {6.27.2.1}append()}{75}{subsubsection.6.27.2.1}\protected@file@percent }
\gdef \LT@lxxiii {\LT@entry 
    {3}{35.6684pt}\LT@entry 
    {3}{125.31117pt}}
\@writefile{toc}{\contentsline {section}{\numberline {6.28}bixi\discretionary {\mbox  {\scriptsize  $\hookleftarrow  $}}{}{}Trip.\discretionary {\mbox  {\scriptsize  $\hookleftarrow  $}}{}{}Trip Class Reference}{76}{section.6.28}\protected@file@percent }
\newlabel{classbixi_trip_1_1_trip}{{6.28}{76}{bixi\+Trip.\+Trip Class Reference}{section.6.28}{}}
\@writefile{toc}{\contentsline {subsection}{\numberline {6.28.1}Constructor \& Destructor Documentation}{76}{subsection.6.28.1}\protected@file@percent }
\newlabel{classbixi_trip_1_1_trip_a18b4510b63e455cfb0a1b55b85f84118}{{6.28.1}{76}{Constructor \& Destructor Documentation}{subsection.6.28.1}{}}
\@writefile{toc}{\contentsline {subsubsection}{\numberline {6.28.1.1}Trip()}{76}{subsubsection.6.28.1.1}\protected@file@percent }
\@writefile{toc}{\contentsline {subsection}{\numberline {6.28.2}Member Function Documentation}{76}{subsection.6.28.2}\protected@file@percent }
\newlabel{classbixi_trip_1_1_trip_a1e8317cf394a78f7113f131c1b037de6}{{6.28.2}{76}{Member Function Documentation}{subsection.6.28.2}{}}
\@writefile{toc}{\contentsline {subsubsection}{\numberline {6.28.2.1}getDuration()}{77}{subsubsection.6.28.2.1}\protected@file@percent }
\newlabel{classbixi_trip_1_1_trip_a95b416d8bdc76abe46d72c1eec410bb4}{{6.28.2.1}{77}{\texorpdfstring {getDuration()}{getDuration()}}{subsubsection.6.28.2.1}{}}
\@writefile{toc}{\contentsline {subsubsection}{\numberline {6.28.2.2}getRoute()}{77}{subsubsection.6.28.2.2}\protected@file@percent }
\newlabel{classbixi_trip_1_1_trip_a9a3ba7c01f2afd56be43d6c1ce4679d3}{{6.28.2.2}{77}{\texorpdfstring {getRoute()}{getRoute()}}{subsubsection.6.28.2.2}{}}
\@writefile{toc}{\contentsline {subsubsection}{\numberline {6.28.2.3}getUrl()}{77}{subsubsection.6.28.2.3}\protected@file@percent }
\@writefile{toc}{\contentsline {subsection}{\numberline {6.28.3}Member Data Documentation}{77}{subsection.6.28.3}\protected@file@percent }
\newlabel{classbixi_trip_1_1_trip_a1f90cad16ad406d2c34ec6221321c696}{{6.28.3}{77}{Member Data Documentation}{subsection.6.28.3}{}}
\@writefile{toc}{\contentsline {subsubsection}{\numberline {6.28.3.1}end}{77}{subsubsection.6.28.3.1}\protected@file@percent }
\newlabel{classbixi_trip_1_1_trip_a6c72e717ebdf4518951a5393a79aed04}{{6.28.3.1}{77}{\texorpdfstring {end}{end}}{subsubsection.6.28.3.1}{}}
\@writefile{toc}{\contentsline {subsubsection}{\numberline {6.28.3.2}route}{77}{subsubsection.6.28.3.2}\protected@file@percent }
\newlabel{classbixi_trip_1_1_trip_af2b8f81e869d5e929b0e4dee842d1613}{{6.28.3.2}{77}{\texorpdfstring {route}{route}}{subsubsection.6.28.3.2}{}}
\@writefile{toc}{\contentsline {subsubsection}{\numberline {6.28.3.3}sp}{78}{subsubsection.6.28.3.3}\protected@file@percent }
\newlabel{classbixi_trip_1_1_trip_adb0b89b1a0436099db1699d89b01952c}{{6.28.3.3}{78}{\texorpdfstring {sp}{sp}}{subsubsection.6.28.3.3}{}}
\@writefile{toc}{\contentsline {subsubsection}{\numberline {6.28.3.4}start}{78}{subsubsection.6.28.3.4}\protected@file@percent }
\newlabel{classbixi_trip_1_1_trip_a29a6348d81c6f47139dfcb6a66911117}{{6.28.3.4}{78}{\texorpdfstring {start}{start}}{subsubsection.6.28.3.4}{}}
\@writefile{toc}{\contentsline {subsubsection}{\numberline {6.28.3.5}stations}{78}{subsubsection.6.28.3.5}\protected@file@percent }
\@writefile{toc}{\contentsline {chapter}{\numberline {7}File Documentation}{79}{chapter.7}\protected@file@percent }
\@writefile{lof}{\addvspace {10\p@ }}
\@writefile{lot}{\addvspace {10\p@ }}
\@writefile{toc}{\contentsline {section}{\numberline {7.1}src/algs/\discretionary {\mbox  {\scriptsize  $\hookleftarrow  $}}{}{}Binary\discretionary {\mbox  {\scriptsize  $\hookleftarrow  $}}{}{}Search.java File Reference}{79}{section.7.1}\protected@file@percent }
\newlabel{_binary_search_8java}{{7.1}{79}{src/algs/\+Binary\+Search.java File Reference}{section.7.1}{}}
\@writefile{toc}{\contentsline {section}{\numberline {7.2}src/algs/\discretionary {\mbox  {\scriptsize  $\hookleftarrow  $}}{}{}Graph.java File Reference}{79}{section.7.2}\protected@file@percent }
\newlabel{_graph_8java}{{7.2}{79}{src/algs/\+Graph.java File Reference}{section.7.2}{}}
\@writefile{toc}{\contentsline {section}{\numberline {7.3}src/algs/\discretionary {\mbox  {\scriptsize  $\hookleftarrow  $}}{}{}Index\discretionary {\mbox  {\scriptsize  $\hookleftarrow  $}}{}{}Min\discretionary {\mbox  {\scriptsize  $\hookleftarrow  $}}{}{}PQ.java File Reference}{79}{section.7.3}\protected@file@percent }
\newlabel{_index_min_p_q_8java}{{7.3}{79}{src/algs/\+Index\+Min\+PQ.java File Reference}{section.7.3}{}}
\@writefile{toc}{\contentsline {section}{\numberline {7.4}src/algs/\discretionary {\mbox  {\scriptsize  $\hookleftarrow  $}}{}{}Past\discretionary {\mbox  {\scriptsize  $\hookleftarrow  $}}{}{}Trips\discretionary {\mbox  {\scriptsize  $\hookleftarrow  $}}{}{}B\discretionary {\mbox  {\scriptsize  $\hookleftarrow  $}}{}{}U\discretionary {\mbox  {\scriptsize  $\hookleftarrow  $}}{}{}Merge\discretionary {\mbox  {\scriptsize  $\hookleftarrow  $}}{}{}Sort.java File Reference}{80}{section.7.4}\protected@file@percent }
\newlabel{_past_trips_b_u_merge_sort_8java}{{7.4}{80}{src/algs/\+Past\+Trips\+B\+U\+Merge\+Sort.java File Reference}{section.7.4}{}}
\@writefile{toc}{\contentsline {section}{\numberline {7.5}src/algs/\discretionary {\mbox  {\scriptsize  $\hookleftarrow  $}}{}{}Queue.java File Reference}{80}{section.7.5}\protected@file@percent }
\newlabel{_queue_8java}{{7.5}{80}{src/algs/\+Queue.java File Reference}{section.7.5}{}}
\@writefile{toc}{\contentsline {section}{\numberline {7.6}src/algs/\discretionary {\mbox  {\scriptsize  $\hookleftarrow  $}}{}{}SP.java File Reference}{80}{section.7.6}\protected@file@percent }
\newlabel{_s_p_8java}{{7.6}{80}{src/algs/\+SP.java File Reference}{section.7.6}{}}
\@writefile{toc}{\contentsline {section}{\numberline {7.7}src/algs/\discretionary {\mbox  {\scriptsize  $\hookleftarrow  $}}{}{}Stack.java File Reference}{80}{section.7.7}\protected@file@percent }
\newlabel{_stack_8java}{{7.7}{80}{src/algs/\+Stack.java File Reference}{section.7.7}{}}
\@writefile{toc}{\contentsline {section}{\numberline {7.8}src/algs/\discretionary {\mbox  {\scriptsize  $\hookleftarrow  $}}{}{}Stations\discretionary {\mbox  {\scriptsize  $\hookleftarrow  $}}{}{}Mergesort.java File Reference}{81}{section.7.8}\protected@file@percent }
\newlabel{_stations_mergesort_8java}{{7.8}{81}{src/algs/\+Stations\+Mergesort.java File Reference}{section.7.8}{}}
\@writefile{toc}{\contentsline {section}{\numberline {7.9}src/bixi\discretionary {\mbox  {\scriptsize  $\hookleftarrow  $}}{}{}Trip/\discretionary {\mbox  {\scriptsize  $\hookleftarrow  $}}{}{}Bixi\discretionary {\mbox  {\scriptsize  $\hookleftarrow  $}}{}{}Trip\discretionary {\mbox  {\scriptsize  $\hookleftarrow  $}}{}{}UI.java File Reference}{81}{section.7.9}\protected@file@percent }
\newlabel{_bixi_trip_u_i_8java}{{7.9}{81}{src/bixi\+Trip/\+Bixi\+Trip\+UI.java File Reference}{section.7.9}{}}
\@writefile{toc}{\contentsline {subsection}{\numberline {7.9.1}Detailed Description}{81}{subsection.7.9.1}\protected@file@percent }
\@writefile{toc}{\contentsline {section}{\numberline {7.10}src/bixi\discretionary {\mbox  {\scriptsize  $\hookleftarrow  $}}{}{}Trip/\discretionary {\mbox  {\scriptsize  $\hookleftarrow  $}}{}{}Button\discretionary {\mbox  {\scriptsize  $\hookleftarrow  $}}{}{}Handler.java File Reference}{81}{section.7.10}\protected@file@percent }
\newlabel{_button_handler_8java}{{7.10}{81}{src/bixi\+Trip/\+Button\+Handler.java File Reference}{section.7.10}{}}
\@writefile{toc}{\contentsline {subsection}{\numberline {7.10.1}Detailed Description}{82}{subsection.7.10.1}\protected@file@percent }
\@writefile{toc}{\contentsline {section}{\numberline {7.11}src/bixi\discretionary {\mbox  {\scriptsize  $\hookleftarrow  $}}{}{}Trip/\discretionary {\mbox  {\scriptsize  $\hookleftarrow  $}}{}{}Coord.java File Reference}{82}{section.7.11}\protected@file@percent }
\newlabel{_coord_8java}{{7.11}{82}{src/bixi\+Trip/\+Coord.java File Reference}{section.7.11}{}}
\@writefile{toc}{\contentsline {subsection}{\numberline {7.11.1}Detailed Description}{82}{subsection.7.11.1}\protected@file@percent }
\@writefile{toc}{\contentsline {section}{\numberline {7.12}src/bixi\discretionary {\mbox  {\scriptsize  $\hookleftarrow  $}}{}{}Trip/\discretionary {\mbox  {\scriptsize  $\hookleftarrow  $}}{}{}Direction\discretionary {\mbox  {\scriptsize  $\hookleftarrow  $}}{}{}Handler.java File Reference}{82}{section.7.12}\protected@file@percent }
\newlabel{_direction_handler_8java}{{7.12}{82}{src/bixi\+Trip/\+Direction\+Handler.java File Reference}{section.7.12}{}}
\@writefile{toc}{\contentsline {subsection}{\numberline {7.12.1}Detailed Description}{83}{subsection.7.12.1}\protected@file@percent }
\@writefile{toc}{\contentsline {section}{\numberline {7.13}src/bixi\discretionary {\mbox  {\scriptsize  $\hookleftarrow  $}}{}{}Trip/\discretionary {\mbox  {\scriptsize  $\hookleftarrow  $}}{}{}Parse\discretionary {\mbox  {\scriptsize  $\hookleftarrow  $}}{}{}Worker.java File Reference}{83}{section.7.13}\protected@file@percent }
\newlabel{_parse_worker_8java}{{7.13}{83}{src/bixi\+Trip/\+Parse\+Worker.java File Reference}{section.7.13}{}}
\@writefile{toc}{\contentsline {subsection}{\numberline {7.13.1}Detailed Description}{83}{subsection.7.13.1}\protected@file@percent }
\@writefile{toc}{\contentsline {section}{\numberline {7.14}src/bixi\discretionary {\mbox  {\scriptsize  $\hookleftarrow  $}}{}{}Trip/\discretionary {\mbox  {\scriptsize  $\hookleftarrow  $}}{}{}Past\discretionary {\mbox  {\scriptsize  $\hookleftarrow  $}}{}{}Trip.java File Reference}{83}{section.7.14}\protected@file@percent }
\newlabel{_past_trip_8java}{{7.14}{83}{src/bixi\+Trip/\+Past\+Trip.java File Reference}{section.7.14}{}}
\@writefile{toc}{\contentsline {subsection}{\numberline {7.14.1}Detailed Description}{84}{subsection.7.14.1}\protected@file@percent }
\@writefile{toc}{\contentsline {section}{\numberline {7.15}src/bixi\discretionary {\mbox  {\scriptsize  $\hookleftarrow  $}}{}{}Trip/\discretionary {\mbox  {\scriptsize  $\hookleftarrow  $}}{}{}Past\discretionary {\mbox  {\scriptsize  $\hookleftarrow  $}}{}{}Trip\discretionary {\mbox  {\scriptsize  $\hookleftarrow  $}}{}{}Parser.java File Reference}{84}{section.7.15}\protected@file@percent }
\newlabel{_past_trip_parser_8java}{{7.15}{84}{src/bixi\+Trip/\+Past\+Trip\+Parser.java File Reference}{section.7.15}{}}
\@writefile{toc}{\contentsline {subsection}{\numberline {7.15.1}Detailed Description}{84}{subsection.7.15.1}\protected@file@percent }
\@writefile{toc}{\contentsline {section}{\numberline {7.16}src/bixi\discretionary {\mbox  {\scriptsize  $\hookleftarrow  $}}{}{}Trip/\discretionary {\mbox  {\scriptsize  $\hookleftarrow  $}}{}{}Past\discretionary {\mbox  {\scriptsize  $\hookleftarrow  $}}{}{}Trips.java File Reference}{84}{section.7.16}\protected@file@percent }
\newlabel{_past_trips_8java}{{7.16}{84}{src/bixi\+Trip/\+Past\+Trips.java File Reference}{section.7.16}{}}
\@writefile{toc}{\contentsline {subsection}{\numberline {7.16.1}Detailed Description}{85}{subsection.7.16.1}\protected@file@percent }
\@writefile{toc}{\contentsline {section}{\numberline {7.17}src/bixi\discretionary {\mbox  {\scriptsize  $\hookleftarrow  $}}{}{}Trip/\discretionary {\mbox  {\scriptsize  $\hookleftarrow  $}}{}{}Path.java File Reference}{85}{section.7.17}\protected@file@percent }
\newlabel{_path_8java}{{7.17}{85}{src/bixi\+Trip/\+Path.java File Reference}{section.7.17}{}}
\@writefile{toc}{\contentsline {subsection}{\numberline {7.17.1}Detailed Description}{85}{subsection.7.17.1}\protected@file@percent }
\@writefile{toc}{\contentsline {section}{\numberline {7.18}src/bixi\discretionary {\mbox  {\scriptsize  $\hookleftarrow  $}}{}{}Trip/\discretionary {\mbox  {\scriptsize  $\hookleftarrow  $}}{}{}Paths.java File Reference}{85}{section.7.18}\protected@file@percent }
\newlabel{_paths_8java}{{7.18}{85}{src/bixi\+Trip/\+Paths.java File Reference}{section.7.18}{}}
\@writefile{toc}{\contentsline {subsection}{\numberline {7.18.1}Detailed Description}{86}{subsection.7.18.1}\protected@file@percent }
\@writefile{toc}{\contentsline {section}{\numberline {7.19}src/bixi\discretionary {\mbox  {\scriptsize  $\hookleftarrow  $}}{}{}Trip/\discretionary {\mbox  {\scriptsize  $\hookleftarrow  $}}{}{}Station.java File Reference}{86}{section.7.19}\protected@file@percent }
\newlabel{_station_8java}{{7.19}{86}{src/bixi\+Trip/\+Station.java File Reference}{section.7.19}{}}
\@writefile{toc}{\contentsline {subsection}{\numberline {7.19.1}Detailed Description}{86}{subsection.7.19.1}\protected@file@percent }
\@writefile{toc}{\contentsline {section}{\numberline {7.20}src/bixi\discretionary {\mbox  {\scriptsize  $\hookleftarrow  $}}{}{}Trip/\discretionary {\mbox  {\scriptsize  $\hookleftarrow  $}}{}{}Stations.java File Reference}{86}{section.7.20}\protected@file@percent }
\newlabel{_stations_8java}{{7.20}{86}{src/bixi\+Trip/\+Stations.java File Reference}{section.7.20}{}}
\@writefile{toc}{\contentsline {subsection}{\numberline {7.20.1}Detailed Description}{87}{subsection.7.20.1}\protected@file@percent }
\@writefile{toc}{\contentsline {section}{\numberline {7.21}src/bixi\discretionary {\mbox  {\scriptsize  $\hookleftarrow  $}}{}{}Trip/\discretionary {\mbox  {\scriptsize  $\hookleftarrow  $}}{}{}Stations\discretionary {\mbox  {\scriptsize  $\hookleftarrow  $}}{}{}Parser.java File Reference}{87}{section.7.21}\protected@file@percent }
\newlabel{_stations_parser_8java}{{7.21}{87}{src/bixi\+Trip/\+Stations\+Parser.java File Reference}{section.7.21}{}}
\@writefile{toc}{\contentsline {subsection}{\numberline {7.21.1}Detailed Description}{87}{subsection.7.21.1}\protected@file@percent }
\@writefile{toc}{\contentsline {section}{\numberline {7.22}src/bixi\discretionary {\mbox  {\scriptsize  $\hookleftarrow  $}}{}{}Trip/\discretionary {\mbox  {\scriptsize  $\hookleftarrow  $}}{}{}Test\discretionary {\mbox  {\scriptsize  $\hookleftarrow  $}}{}{}UI.java File Reference}{87}{section.7.22}\protected@file@percent }
\newlabel{_test_u_i_8java}{{7.22}{87}{src/bixi\+Trip/\+Test\+UI.java File Reference}{section.7.22}{}}
\@writefile{toc}{\contentsline {subsection}{\numberline {7.22.1}Detailed Description}{88}{subsection.7.22.1}\protected@file@percent }
\@writefile{toc}{\contentsline {section}{\numberline {7.23}src/bixi\discretionary {\mbox  {\scriptsize  $\hookleftarrow  $}}{}{}Trip/\discretionary {\mbox  {\scriptsize  $\hookleftarrow  $}}{}{}Trip.java File Reference}{88}{section.7.23}\protected@file@percent }
\newlabel{_trip_8java}{{7.23}{88}{src/bixi\+Trip/\+Trip.java File Reference}{section.7.23}{}}
\@writefile{toc}{\contentsline {subsection}{\numberline {7.23.1}Detailed Description}{88}{subsection.7.23.1}\protected@file@percent }
\@writefile{toc}{\contentsline {chapter}{Index}{89}{section*.133}\protected@file@percent }
\gdef \@abspage@last{106}
