\relax 
\providecommand\hyper@newdestlabel[2]{}
\providecommand\HyperFirstAtBeginDocument{\AtBeginDocument}
\HyperFirstAtBeginDocument{\ifx\hyper@anchor\@undefined
\global\let\oldcontentsline\contentsline
\gdef\contentsline#1#2#3#4{\oldcontentsline{#1}{#2}{#3}}
\global\let\oldnewlabel\newlabel
\gdef\newlabel#1#2{\newlabelxx{#1}#2}
\gdef\newlabelxx#1#2#3#4#5#6{\oldnewlabel{#1}{{#2}{#3}}}
\AtEndDocument{\ifx\hyper@anchor\@undefined
\let\contentsline\oldcontentsline
\let\newlabel\oldnewlabel
\fi}
\fi}
\global\let\hyper@last\relax 
\gdef\HyperFirstAtBeginDocument#1{#1}
\providecommand\HyField@AuxAddToFields[1]{}
\providecommand\HyField@AuxAddToCoFields[2]{}
\citation{ParnasEtAl1984}
\citation{Parnas1972a}
\citation{ParnasEtAl1984}
\citation{ParnasEtAl1984}
\@writefile{lot}{\contentsline {table}{\numberline {1}{\ignorespaces Table of Revisions}}{3}{table.1}}
\@writefile{toc}{\contentsline {section}{\numberline {1}Introduction}{3}{section.1}}
\@writefile{toc}{\contentsline {section}{\numberline {2}Anticipated and Unlikely Changes}{3}{section.2}}
\newlabel{SecChange}{{2}{3}{Anticipated and Unlikely Changes}{section.2}{}}
\@writefile{toc}{\contentsline {subsection}{\numberline {2.1}Anticipated Changes}{4}{subsection.2.1}}
\newlabel{SecAchange}{{2.1}{4}{Anticipated Changes}{subsection.2.1}{}}
\newlabel{ac1}{{1}{4}{\enit@align {\enit@format {\refstepcounter {acnum} \actheacnum \label {ac1}:}}}{acnum.1}{}}
\newlabel{ac2}{{2}{4}{\enit@align {\enit@format {\refstepcounter {acnum} \actheacnum \label {ac2}:}}}{acnum.2}{}}
\@writefile{toc}{\contentsline {subsection}{\numberline {2.2}Unlikely Changes}{4}{subsection.2.2}}
\newlabel{SecUchange}{{2.2}{4}{Unlikely Changes}{subsection.2.2}{}}
\newlabel{uc1}{{1}{4}{\enit@align {\enit@format {\refstepcounter {ucnum} \uctheucnum \label {uc1}:}}}{ucnum.1}{}}
\newlabel{uc2}{{2}{4}{\enit@align {\enit@format {\refstepcounter {ucnum} \uctheucnum \label {uc2}:}}}{ucnum.2}{}}
\newlabel{uc3}{{3}{4}{\enit@align {\enit@format {\refstepcounter {ucnum} \uctheucnum \label {uc3}:}}}{ucnum.3}{}}
\newlabel{uc4}{{4}{4}{\enit@align {\enit@format {\refstepcounter {ucnum} \uctheucnum \label {uc4}:}}}{ucnum.4}{}}
\@writefile{toc}{\contentsline {section}{\numberline {3}Module Hierarchy}{5}{section.3}}
\newlabel{SecMH}{{3}{5}{Module Hierarchy}{section.3}{}}
\newlabel{m1}{{1}{5}{\enit@align {\enit@format {\refstepcounter {mnum} \mthemnum \label {m1}:}}}{mnum.1}{}}
\newlabel{m2}{{2}{5}{\enit@align {\enit@format {\refstepcounter {mnum} \mthemnum \label {m2}:}}}{mnum.2}{}}
\newlabel{m3}{{3}{5}{\enit@align {\enit@format {\refstepcounter {mnum} \mthemnum \label {m3}:}}}{mnum.3}{}}
\newlabel{m4}{{4}{5}{\enit@align {\enit@format {\refstepcounter {mnum} \mthemnum \label {m4}:}}}{mnum.4}{}}
\@writefile{toc}{\contentsline {subsection}{\numberline {3.1}System Architecture}{5}{subsection.3.1}}
\citation{ParnasEtAl1984}
\@writefile{lot}{\contentsline {table}{\numberline {2}{\ignorespaces Module Hierarchy}}{6}{table.2}}
\newlabel{TblMH}{{2}{6}{Module Hierarchy}{table.2}{}}
\@writefile{toc}{\contentsline {section}{\numberline {4}Connection Between Requirements and Design}{6}{section.4}}
\newlabel{SecConnection}{{4}{6}{Connection Between Requirements and Design}{section.4}{}}
\@writefile{toc}{\contentsline {section}{\numberline {5}Module Decomposition}{6}{section.5}}
\newlabel{SecMD}{{5}{6}{Module Decomposition}{section.5}{}}
\@writefile{toc}{\contentsline {subsection}{\numberline {5.1}View Module (\ref  {m1})}{7}{subsection.5.1}}
\@writefile{toc}{\contentsline {subsubsection}{\numberline {5.1.1}UserInputModule (M1.1)}{7}{subsubsection.5.1.1}}
\newlabel{m1.1}{{5.1.1}{7}{UserInputModule (M1.1)}{subsubsection.5.1.1}{}}
\@writefile{toc}{\contentsline {subsubsection}{\numberline {5.1.2}FrontendTestingModule (M1.2)}{7}{subsubsection.5.1.2}}
\newlabel{m1.2}{{5.1.2}{7}{FrontendTestingModule (M1.2)}{subsubsection.5.1.2}{}}
\@writefile{toc}{\contentsline {subsection}{\numberline {5.2}Controller Module (\ref  {m2})}{7}{subsection.5.2}}
\@writefile{toc}{\contentsline {subsubsection}{\numberline {5.2.1}PathGeneratorModule (M2.1)}{7}{subsubsection.5.2.1}}
\newlabel{m2.1}{{5.2.1}{7}{PathGeneratorModule (M2.1)}{subsubsection.5.2.1}{}}
\@writefile{toc}{\contentsline {subsubsection}{\numberline {5.2.2}PastTripImportModule (M2.2)}{7}{subsubsection.5.2.2}}
\newlabel{m2.2}{{5.2.2}{7}{PastTripImportModule (M2.2)}{subsubsection.5.2.2}{}}
\@writefile{toc}{\contentsline {subsubsection}{\numberline {5.2.3}ParserModule (M2.3)}{7}{subsubsection.5.2.3}}
\newlabel{m2.3}{{5.2.3}{7}{ParserModule (M2.3)}{subsubsection.5.2.3}{}}
\@writefile{toc}{\contentsline {subsubsection}{\numberline {5.2.4}StationsImportModule (M2.4)}{7}{subsubsection.5.2.4}}
\newlabel{m2.4}{{5.2.4}{7}{StationsImportModule (M2.4)}{subsubsection.5.2.4}{}}
\@writefile{toc}{\contentsline {subsubsection}{\numberline {5.2.5}ButtonControllerModule (M2.5)}{8}{subsubsection.5.2.5}}
\newlabel{m2.5}{{5.2.5}{8}{ButtonControllerModule (M2.5)}{subsubsection.5.2.5}{}}
\@writefile{toc}{\contentsline {subsection}{\numberline {5.3}Model Module (\ref  {m3})}{8}{subsection.5.3}}
\@writefile{toc}{\contentsline {subsubsection}{\numberline {5.3.1}CoordinateModelModule (M3.1)}{8}{subsubsection.5.3.1}}
\newlabel{m3.1}{{5.3.1}{8}{CoordinateModelModule (M3.1)}{subsubsection.5.3.1}{}}
\@writefile{toc}{\contentsline {subsubsection}{\numberline {5.3.2}PastTripModelModule (M3.2)}{8}{subsubsection.5.3.2}}
\newlabel{m3.2}{{5.3.2}{8}{PastTripModelModule (M3.2)}{subsubsection.5.3.2}{}}
\@writefile{toc}{\contentsline {subsubsection}{\numberline {5.3.3}PastTripAggregationModule (M3.3)}{8}{subsubsection.5.3.3}}
\newlabel{m3.3}{{5.3.3}{8}{PastTripAggregationModule (M3.3)}{subsubsection.5.3.3}{}}
\@writefile{toc}{\contentsline {subsubsection}{\numberline {5.3.4}RouteModelModule (M3.4)}{8}{subsubsection.5.3.4}}
\newlabel{m3.4}{{5.3.4}{8}{RouteModelModule (M3.4)}{subsubsection.5.3.4}{}}
\@writefile{toc}{\contentsline {subsubsection}{\numberline {5.3.5}RouteAggregationModule (M3.5)}{8}{subsubsection.5.3.5}}
\newlabel{m3.5}{{5.3.5}{8}{RouteAggregationModule (M3.5)}{subsubsection.5.3.5}{}}
\@writefile{toc}{\contentsline {subsubsection}{\numberline {5.3.6}StationModelModule (M3.6)}{8}{subsubsection.5.3.6}}
\newlabel{m3.6}{{5.3.6}{8}{StationModelModule (M3.6)}{subsubsection.5.3.6}{}}
\@writefile{toc}{\contentsline {subsubsection}{\numberline {5.3.7}StationAggregationModule (M3.7)}{9}{subsubsection.5.3.7}}
\newlabel{m3.7}{{5.3.7}{9}{StationAggregationModule (M3.7)}{subsubsection.5.3.7}{}}
\@writefile{toc}{\contentsline {subsubsection}{\numberline {5.3.8}TripModelModule (M3.8)}{9}{subsubsection.5.3.8}}
\newlabel{m3.8}{{5.3.8}{9}{TripModelModule (M3.8)}{subsubsection.5.3.8}{}}
\@writefile{toc}{\contentsline {subsection}{\numberline {5.4}Software Decision Module (\ref  {m4})}{9}{subsection.5.4}}
\@writefile{toc}{\contentsline {subsubsection}{\numberline {5.4.1}BinarySearch (M4.1)}{9}{subsubsection.5.4.1}}
\newlabel{m4.1}{{5.4.1}{9}{BinarySearch (M4.1)}{subsubsection.5.4.1}{}}
\@writefile{toc}{\contentsline {subsubsection}{\numberline {5.4.2}Graph (M4.2)}{9}{subsubsection.5.4.2}}
\newlabel{m4.2}{{5.4.2}{9}{Graph (M4.2)}{subsubsection.5.4.2}{}}
\@writefile{toc}{\contentsline {subsubsection}{\numberline {5.4.3}MinPriorityQueue (M4.3)}{9}{subsubsection.5.4.3}}
\newlabel{m4.3}{{5.4.3}{9}{MinPriorityQueue (M4.3)}{subsubsection.5.4.3}{}}
\@writefile{toc}{\contentsline {subsubsection}{\numberline {5.4.4}PastTripsSorter (M4.4)}{9}{subsubsection.5.4.4}}
\newlabel{m4.4}{{5.4.4}{9}{PastTripsSorter (M4.4)}{subsubsection.5.4.4}{}}
\@writefile{toc}{\contentsline {subsubsection}{\numberline {5.4.5}Queue (M4.5)}{9}{subsubsection.5.4.5}}
\newlabel{m4.5}{{5.4.5}{9}{Queue (M4.5)}{subsubsection.5.4.5}{}}
\@writefile{toc}{\contentsline {subsubsection}{\numberline {5.4.6}Stack (M4.6)}{10}{subsubsection.5.4.6}}
\newlabel{m4.6}{{5.4.6}{10}{Stack (M4.6)}{subsubsection.5.4.6}{}}
\@writefile{toc}{\contentsline {subsubsection}{\numberline {5.4.7}ShortestPath (M4.7)}{10}{subsubsection.5.4.7}}
\newlabel{m4.7}{{5.4.7}{10}{ShortestPath (M4.7)}{subsubsection.5.4.7}{}}
\@writefile{toc}{\contentsline {subsubsection}{\numberline {5.4.8}StationsSorter (M4.8)}{10}{subsubsection.5.4.8}}
\newlabel{m4.8}{{5.4.8}{10}{StationsSorter (M4.8)}{subsubsection.5.4.8}{}}
\@writefile{toc}{\contentsline {section}{\numberline {6}Traceability Matrix}{10}{section.6}}
\newlabel{SecTM}{{6}{10}{Traceability Matrix}{section.6}{}}
\@writefile{lot}{\contentsline {table}{\numberline {3}{\ignorespaces Trace Between Requirements and Modules}}{10}{table.3}}
\newlabel{TblRT}{{3}{10}{Trace Between Requirements and Modules}{table.3}{}}
\@writefile{lot}{\contentsline {table}{\numberline {4}{\ignorespaces Trace Between Anticipated Changes and Modules}}{11}{table.4}}
\newlabel{TblACT}{{4}{11}{Trace Between Anticipated Changes and Modules}{table.4}{}}
\citation{Parnas1978}
\bibstyle{plainnat}
\bibdata{MG}
\@writefile{toc}{\contentsline {section}{\numberline {7}Use Hierarchy Between Modules}{12}{section.7}}
\newlabel{SecUse}{{7}{12}{Use Hierarchy Between Modules}{section.7}{}}
\@writefile{lof}{\contentsline {figure}{\numberline {1}{\ignorespaces Module Hierarchy of BixiTrip}}{12}{figure.1}}
\newlabel{fig:my_label}{{1}{12}{Module Hierarchy of BixiTrip}{figure.1}{}}
\@writefile{toc}{\contentsline {section}{\numberline {A}Schedule}{12}{appendix.A}}
